# 
# Wavefront OBJ file
# Converted by the 3D Exploration 1.833
# XDimension Software, LLC
# http://www.xdsoft.com/explorer/
# 
mtllib t.mtl
# object Object #0
g Object__0
v 24.6815 -3.9165 -8
v 24.6815 -3.9165 -9
v 24.7095 -4.4695 -9
v 24.6815 -3.9165 -5
v 24.1995 -3.9165 -8
v 24.7035 -3.4235 -8
v 24.7035 -3.4235 -9
v 24.9895 -2.1005 -8
v 24.9895 -2.1005 -9
v 35.6585 -3.4235 -9
v 35.6805 -3.9165 -9
v 35.6805 -3.9225 -9
v 35.5335 -5.1765 -9
v 35.6805 -3.9225 -5
v 35.6805 -3.9165 -8
v 35.6805 -3.9165 -5
v 35.7145 -1.6475 -8
v 35.6585 -3.4235 -8
v 35.3715 -2.1005 -8
v 35.0285 -0.413498 -8
v 35.7125 -1.6415 -8.069
v 35.7055 -1.6255 -8.136
v 35.8005 4.6595 -8.131
v 35.7745 4.6405 -8.259
v 19.1595 9.6895 -8.258
v 19.1175 9.6375 -8.434
v 14.1995 18.8375 -8.431
v 14.2625 18.8715 -8.259
v 19.1675 9.6995 -8.223
v 14.2675 18.8735 -8.222
v 14.2925 18.8875 -8
v 19.1855 9.7205 -8
v 35.8095 4.6655 -8
v 19.1855 9.7205 8
v 35.8095 4.6655 8
v 35.7225 -1.1105 8
v 35.6805 -3.9165 5
v 35.6585 -3.4235 -5
v 35.6585 -3.4235 5
v 24.7035 -3.4235 5
v 24.9895 -2.1005 5
v 24.9895 -2.1005 -5
v 25.5905 -0.887499 -5
v 25.5905 -0.887499 5
v 26.4705 0.142501 -5
v 26.4705 0.142501 5
v 31.5245 1.4165 5
v 32.7875 0.926501 5
v 33.8915 0.142501 5
v 34.7705 -0.887499 5
v 35.3715 -2.1005 5
v 35.3715 -2.1005 -5
v 24.7035 -3.4235 -5
v 34.7705 -0.887499 -5
v 33.8915 0.142501 -5
v 32.7875 0.926501 -5
v 31.5245 1.4165 -5
v 30.1805 1.5825 5
v 27.5745 0.926501 5
v 28.8375 1.4165 5
v 28.8375 1.4165 -5
v 30.1805 1.5825 -5
v 27.5745 0.926501 -5
v 24.6815 -3.9165 5
v 23.9695 -3.9165 8
v 24.6815 -3.9165 8
v 24.7035 -3.4235 8
v 24.6815 -3.9165 9
v 24.7035 -3.4235 9
v 35.6805 -3.9225 9
v 35.5335 -5.1765 9
v 35.6805 -3.9225 5
v 35.6805 -3.9165 8
v 35.6805 -3.9165 9
v 35.6585 -3.4235 9
v 35.6585 -3.4235 8
v 35.3715 -2.1005 8
v 35.3715 -2.1005 9
v 24.9895 -2.1005 9
v 25.5905 -0.887499 9
v 24.9895 -2.1005 8
v 24.1535 -2.4135 8
v 24.6965 -0.999499 8
v 24.1535 -2.4135 9
v 24.0505 -2.9165 9
v 24.0305 -3.0475 8.991
v 24.0135 -3.1755 8.966
v 23.9995 -3.2995 8.924
v 23.9895 -3.4165 8.866
v 23.9815 -3.5255 8.794
v 23.9765 -3.6235 8.707
v 23.9725 -3.7095 8.609
v 23.9705 -3.7825 8.5
v 23.9695 -3.8405 8.383
v 23.9695 -3.8825 8.259
v 23.9695 -3.9085 8.13
v -24.2905 -3.8825 8.259
v -24.2905 -3.8405 8.383
v -24.4545 -2.5205 8
v -24.2915 -3.7825 8.5
v -24.2935 -3.7105 8.609
v -24.2975 -3.6235 8.707
v -24.3025 -3.5255 8.793
v -24.3105 -3.4165 8.866
v -24.3215 -3.2995 8.924
v -24.3355 -3.1755 8.966
v -24.3535 -3.0475 8.991
v -24.3735 -2.9165 9
v -24.4545 -2.5205 9
v -24.9835 -1.1125 9
v -24.9835 -1.1125 8
v -25.5465 -1.1665 8
v -26.4205 -0.027499 8
v -25.5465 -1.1665 9
v -26.4205 -0.027499 9
v -33.0595 0.846501 9
v -24.9975 -2.4935 9
v -24.8095 -3.9165 9
v -24.9975 -2.4935 8
v -24.8095 -3.9165 8
v -24.2905 -3.9165 8
v -24.2905 -3.9085 8.131
v -24.0755 -3.9165 -8
v 24.1995 -3.9085 -8.131
v 24.3665 -2.5145 -8
v 24.1995 -3.8825 -8.259
v 24.2005 -3.8405 -8.383
v 24.2015 -3.7825 -8.5
v 24.2035 -3.7105 -8.609
v 24.2065 -3.6235 -8.707
v 24.2125 -3.5255 -8.793
v 24.2205 -3.4165 -8.866
v 24.2315 -3.2995 -8.924
v 24.2455 -3.1755 -8.966
v 24.2635 -3.0475 -8.991
v -24.1195 -3.1755 -8.966
v 24.2835 -2.9165 -9
v -24.1365 -3.0475 -8.991
v -24.1565 -2.9165 -9
v 24.3665 -2.5145 -9
v 24.9035 -1.1025 -9
v 24.9035 -1.1025 -8
v 25.5905 -0.887499 -8
v 26.4705 0.142501 -8
v 25.5905 -0.887499 -9
v 26.4705 0.142501 -9
v 34.7705 -0.887499 -9
v 27.5745 0.926501 -9
v 28.8375 1.4165 -9
v 30.1805 1.5825 -9
v 31.5245 1.4165 -9
v 32.7875 0.926501 -9
v 33.8915 0.142501 -9
v 34.7705 -0.887499 -8
v 35.3715 -2.1005 -9
v 33.8915 0.142501 -8
v 33.9955 0.689501 -8
v 32.7205 1.4985 -8
v 33.9955 0.689501 -9
v 34.7385 -0.043499 -9
v 34.9915 -0.366498 -8.961
v 35.0285 -0.413498 -8.955
v 35.2285 -0.708498 -8.866
v 35.4305 -1.0515 -8.707
v 35.5855 -1.3545 -8.5
v 35.6385 -1.4705 -8.389
v 35.6815 -1.5685 -8.259
v 35.7325 4.6095 -8.383
v 35.6735 4.5665 -8.5
v 19.0895 9.6045 -8.497
v 35.6005 4.5135 -8.609
v 19.0355 9.5375 -8.623
v 14.0945 18.7815 -8.618
v 14.1745 18.8245 -8.5
v 14.0695 18.9785 -8.5
v 13.9485 18.8755 -8.707
v 14.0345 18.7495 -8.707
v 13.9565 18.7075 -8.775
v 13.7915 18.7405 -8.866
v 13.8375 18.9805 -8.707
v 13.7125 18.8145 -8.866
v 13.6075 18.5845 -8.966
v 13.5675 18.6225 -8.966
v 13.4105 18.4165 -9
v 13.5195 18.6515 -8.966
v 13.4665 18.6695 -8.966
v 13.4105 18.6755 -8.966
v 13.4105 18.9165 -8.866
v 13.5175 18.9045 -8.866
v 13.4105 19.1235 -8.707
v 13.5625 19.1075 -8.707
v 13.6205 18.8705 -8.866
v 13.7065 19.0585 -8.707
v 13.5965 19.2625 -8.5
v 13.7735 19.2025 -8.5
v 13.9335 19.1065 -8.5
v 13.8155 19.2935 -8.259
v 13.9945 19.1865 -8.259
v 14.1455 19.0435 -8.259
v 14.0145 19.2135 -8
v 13.8295 19.3245 -8
v 14.0145 19.2135 8
v 13.8295 19.3245 8
v 13.8155 19.2935 8.259
v 13.6175 19.3595 8.259
v 13.6255 19.3935 8
v 13.4105 19.3825 8.259
v 13.4105 19.4165 8
v -16.7945 19.3825 8.259
v -16.7945 19.4165 8
v -17.2165 19.3365 8.259
v -17.2245 19.3695 8
v -17.6195 19.2005 8.259
v -17.6345 19.2315 8
v -17.9845 18.9815 8.259
v -18.0045 19.0085 8
v -18.2965 18.6915 8.222
v -18.3185 18.7105 8
v -25.9335 9.7005 8.223
v -25.9495 9.7205 8
v -35.8095 4.4585 8
v -35.8015 4.4525 8.131
v -25.9255 9.6905 8.258
v -18.2925 18.6885 8.259
v -18.2385 18.6425 8.431
v -17.9235 18.9015 8.5
v -18.2165 18.6235 8.5
v -25.8865 9.6415 8.434
v -25.8605 9.6105 8.497
v -35.6755 4.3775 8.5
v -35.7335 4.4125 8.383
v -35.7315 -1.3005 8.389
v -35.6755 -1.1885 8.5
v -35.6035 4.3345 8.609
v -35.5165 4.2825 8.707
v -25.8095 9.5475 8.623
v -18.1475 18.5655 8.618
v -18.0955 18.5215 8.707
v -17.8275 18.7755 8.707
v -17.5775 19.1095 8.5
v -17.5115 18.9655 8.707
v -17.1955 19.2385 8.5
v -17.1615 19.0835 8.707
v -16.7945 19.2825 8.5
v -16.7945 19.1235 8.707
v 13.4105 19.2825 8.5
v 13.4105 19.1235 8.707
v 13.5965 19.2625 8.5
v 13.5625 19.1075 8.707
v 13.7735 19.2025 8.5
v 13.9945 19.1865 8.259
v 13.9335 19.1065 8.5
v 14.1455 19.0435 8.259
v 14.1715 19.0655 8
v 14.2925 18.8875 8
v 14.1715 19.0655 -8
v 14.2625 18.8715 8.259
v 19.1795 9.7135 8.131
v 19.1615 9.6915 8.259
v 35.7745 4.6405 8.259
v 35.7325 4.6095 8.383
v 35.6895 -1.0465 8.259
v 35.7095 -1.0845 8.166
v 35.8005 4.6595 8.131
v 35.7205 -1.1065 8.068
v 34.9435 0.071501 8
v 34.7705 -0.887499 8
v 33.8915 0.142501 8
v 34.7705 -0.887499 9
v 33.8915 0.142501 9
v 32.7875 0.926501 9
v 31.5245 1.4165 9
v 26.4705 0.142501 9
v 25.5905 -0.887499 8
v 26.4705 0.142501 8
v 25.5655 0.241501 8
v 24.6965 -0.999499 9
v 25.5655 0.241501 9
v 18.4975 8.8845 9
v 13.4105 18.4165 9
v -16.7945 18.4165 9
v -17.0095 18.3925 9
v -17.2145 18.3235 9
v -17.3995 18.2125 9
v -17.5565 18.0635 9
v -25.3105 8.9275 9
v -17.7255 18.2075 8.971
v -25.4525 9.1045 8.975
v -34.8095 3.8585 9
v -35.0685 4.0135 8.966
v -34.8095 0.081501 9
v -34.0365 0.810502 9
v -32.7475 1.5865 9
v -32.7475 1.5865 8
v -34.0365 0.810502 8
v -34.1985 -0.027499 8
v -35.0725 -1.1665 8
v -34.1985 -0.027499 9
v -35.0725 -1.1665 9
v -34.1985 -7.8055 9
v -33.0595 -8.6795 9
v -31.7335 -9.2295 9
v -30.3095 -9.4165 9
v -28.8865 -9.2295 9
v -27.5595 -8.6795 9
v -26.4205 -7.8055 9
v -25.5465 -6.6665 9
v -24.9975 -5.3405 9
v -24.9975 -5.3405 5
v -24.8095 -3.9165 5
v -33.0595 0.846501 5
v -25.5465 -6.6665 5
v -26.4205 -7.8055 5
v -27.5595 -8.6795 5
v -28.8865 -9.2295 5
v -30.3095 -9.4165 5
v -31.7335 -9.2295 5
v -33.0595 -8.6795 5
v -34.1985 -7.8055 5
v -34.1985 -0.027499 5
v -33.0595 0.846501 -5
v -31.7335 1.3955 -5
v -31.7335 1.3955 5
v -27.5595 0.846501 5
v -26.4205 -0.027499 5
v -25.5465 -1.1665 5
v -24.9975 -2.4935 5
v -24.9975 -2.4935 -5
v -24.8095 -3.9165 -5
v -24.8095 -3.9165 -8
v -24.2585 -2.4195 -8
v -24.0755 -3.9085 -8.13
v -24.0755 -3.8825 -8.259
v -24.0765 -3.8405 -8.383
v -24.0775 -3.7825 -8.5
v -24.0795 -3.7095 -8.609
v -24.0825 -3.6235 -8.707
v -24.0885 -3.5255 -8.794
v -24.0955 -3.4165 -8.866
v -24.1065 -3.2995 -8.924
v -24.9975 -2.4935 -8
v -24.9975 -2.4935 -9
v -25.5465 -1.1665 -9
v -25.5465 -1.1665 -8
v -24.7945 -1.0105 -8
v -25.6535 0.228501 -8
v -24.7945 -1.0105 -9
v -24.2585 -2.4195 -9
v -25.3105 8.9275 -9
v -17.5565 18.0635 -9
v -17.3995 18.2125 -9
v -17.2145 18.3235 -9
v -17.0095 18.3925 -9
v -16.7945 18.4165 -9
v 18.4975 8.8845 -9
v 25.7765 0.130501 -9
v 26.9315 1.1045 -9
v 28.2925 1.7585 -9
v 26.9315 1.1045 -8
v 28.2925 1.7585 -8
v 28.8375 1.4165 -8
v 27.5745 0.926501 -8
v 25.7765 0.130501 -8
v 30.1805 1.5825 -8
v 29.7745 2.0505 -8
v 29.7745 2.0505 -9
v 31.2825 1.9615 -9
v 31.2825 1.9615 -8
v 31.5245 1.4165 -8
v 32.7875 0.926501 -8
v 32.7205 1.4985 -9
v 34.7985 3.9275 -9
v 18.6505 9.0695 -8.971
v 35.0595 4.1185 -8.966
v 18.6755 9.1005 -8.966
v 18.7945 9.2445 -8.895
v 35.3035 4.2965 -8.866
v 18.8415 9.3025 -8.866
v 18.9225 9.4015 -8.775
v 35.5125 4.4495 -8.707
v 18.9835 9.4755 -8.707
v 13.8515 18.6515 -8.866
v 13.7915 18.6195 -8.895
v 13.6395 18.5385 -8.966
v 13.6065 18.5205 -8.971
v -16.7945 18.6755 -8.966
v -17.0645 18.6455 -8.966
v -17.1165 18.8815 -8.866
v -17.4245 18.7775 -8.866
v -17.3225 18.5585 -8.966
v -17.7025 18.6105 -8.866
v -17.5565 18.4185 -8.966
v -17.8855 18.3425 -8.895
v -17.7535 18.2305 -8.966
v -25.4755 9.1325 -8.966
v -25.4525 9.1035 -8.971
v -35.0685 4.0135 -8.966
v -34.8095 3.8585 -9
v -34.8095 0.397501 -9
v -35.0095 0.178501 -8.98
v -35.0655 0.108501 -8.959
v -35.0095 0.178501 -8
v -35.3095 -0.193499 -8.866
v -35.5165 -0.4895 -8.707
v -35.3095 4.1585 -8.866
v -25.5855 9.2695 -8.895
v -25.6295 9.3245 -8.866
v -17.9375 18.3875 -8.866
v -25.7055 9.4175 -8.775
v -18.0285 18.4635 -8.775
v -17.8275 18.7755 -8.707
v -18.0955 18.5215 -8.707
v -25.7625 9.4885 -8.707
v -25.8095 9.5475 -8.623
v -35.5165 4.2825 -8.707
v -35.6035 4.3345 -8.609
v -35.6755 -0.743499 -8.5
v -35.6755 4.3775 -8.5
v -25.8605 9.6105 -8.497
v -25.8865 9.6415 -8.434
v -18.2385 18.6425 -8.431
v -18.2165 18.6235 -8.5
v -18.1475 18.5655 -8.618
v -17.9235 18.9015 -8.5
v -17.5115 18.9655 -8.707
v -17.5775 19.1095 -8.5
v -17.1615 19.0835 -8.707
v -16.7945 18.9165 -8.866
v -16.7945 19.1235 -8.707
v -17.1955 19.2385 -8.5
v -16.7945 19.2825 -8.5
v 13.4105 19.2825 -8.5
v -16.7945 19.3825 -8.259
v 13.4105 19.3825 -8.259
v 13.6175 19.3595 -8.259
v 13.4105 19.4165 -8
v 13.6255 19.3935 -8
v -16.7945 19.4165 -8
v -17.2245 19.3695 -8
v -17.2165 19.3365 -8.259
v -17.6345 19.2315 -8
v -17.6195 19.2005 -8.259
v -18.0045 19.0085 -8
v -17.9845 18.9815 -8.259
v -18.2965 18.6915 -8.222
v -18.2925 18.6885 -8.259
v -25.9335 9.7005 -8.223
v -25.9495 9.7205 -8
v -18.3185 18.7105 -8
v -35.8015 4.4525 -8.131
v -35.7755 4.4375 -8.259
v -35.7955 -0.956499 -8.166
v -35.8075 -0.977499 -8.068
v -35.8095 -0.982499 -8
v -35.8095 4.4585 -8
v -35.8095 -1.4705 8
v -35.8095 -3.9165 -5
v -35.8095 -3.9165 5
v -35.8095 -3.9165 8
v -35.6225 -2.4935 8
v -35.0915 -0.260499 8
v -35.8075 -1.4645 8.069
v -35.8005 -1.4495 8.136
v -35.7755 4.4375 8.259
v -35.7755 -1.3955 8.259
v -35.6225 -2.4935 9
v -35.8095 -3.9165 9
v -35.6225 -5.3405 9
v -35.0725 -6.6665 9
v -35.0725 -6.6665 5
v -35.0725 -1.1665 5
v -35.6225 -5.3405 5
v -35.6225 -2.4935 5
v -35.0725 -1.1665 -5
v -34.1985 -0.027499 -5
v -34.1985 -7.8055 -5
v -33.0595 -8.6795 -5
v -31.7335 -9.2295 -5
v -30.3095 -9.4165 -5
v -28.8865 -9.2295 -5
v -27.5595 -8.6795 -5
v -26.4205 -7.8055 -5
v -25.5465 -6.6665 -5
v -24.9975 -5.3405 -5
v -24.9975 -5.3405 -9
v -24.8095 -3.9165 -9
v -33.0595 0.846501 -9
v -25.5465 -6.6665 -9
v -26.4205 -7.8055 -9
v -27.5595 -8.6795 -9
v -28.8865 -9.2295 -9
v -30.3095 -9.4165 -9
v -31.7335 -9.2295 -9
v -33.0595 -8.6795 -9
v -34.1985 -7.8055 -9
v -34.1985 -0.027499 -9
v -33.0595 0.846501 -8
v -34.1985 -0.027499 -8
v -33.8895 1.1875 -8
v -31.7335 1.3955 -8
v -32.5585 1.8975 -8
v -30.3095 1.5835 -8
v -31.7335 1.3955 -9
v -27.5595 0.846501 -9
v -26.4205 -0.027499 -9
v -26.4205 -0.027499 -8
v -27.5595 0.846501 -8
v -26.7855 1.2255 -8
v -25.6535 0.228501 -9
v -26.7855 1.2255 -9
v -28.1235 1.9215 -9
v -29.5885 2.2755 -9
v -31.0965 2.2675 -9
v -32.5585 1.8975 -9
v -33.8895 1.1875 -9
v -31.0965 2.2675 -8
v -29.5885 2.2755 -8
v -28.8865 1.3955 -8
v -30.3095 1.5835 -9
v -28.8865 1.3955 -9
v -28.1235 1.9215 -8
v -35.0725 -1.1665 -8
v -35.0725 -1.1665 -9
v -35.6225 -2.4935 -9
v -35.6225 -2.4935 -8
v -35.8095 -3.9165 -9
v -35.8095 -3.9165 -8
v -35.6225 -5.3405 -9
v -35.6225 -5.3405 -5
v -35.6225 -2.4935 -5
v -35.0725 -6.6665 -5
v -35.0725 -6.6665 -9
v -35.7755 -0.919498 -8.259
v -35.7315 -0.839499 -8.388
v -35.7335 4.4125 -8.383
v -25.9255 9.6905 -8.258
v -17.7255 18.2075 -8.971
v -25.5465 -1.1665 -5
v -26.4205 -0.027499 -5
v -27.5595 0.846501 -5
v -28.8865 1.3955 5
v -28.8865 1.3955 -5
v -30.3095 1.5835 -5
v -30.3095 1.5835 5
v -33.0595 0.846501 8
v -31.7335 1.3955 9
v -27.5595 0.846501 9
v -28.8865 1.3955 9
v -30.3095 1.5835 9
v -31.7335 1.3955 8
v -30.3095 1.5835 8
v -29.8045 2.0815 8
v -31.3075 2.0195 8
v -31.3075 2.0195 9
v -29.8045 2.0815 9
v -28.3335 1.7695 9
v -26.9855 1.1015 9
v -25.8455 0.120501 9
v -25.8455 0.120501 8
v -26.9855 1.1015 8
v -27.5595 0.846501 8
v -28.8865 1.3955 8
v -28.3335 1.7695 8
v -35.0675 -0.231499 8.963
v -35.0915 -0.260499 8.959
v -35.3095 -0.564498 8.866
v -35.5165 -0.896499 8.707
v -35.3095 4.1585 8.866
v -25.7085 9.4215 8.782
v -25.7595 9.4845 8.703
v -18.0285 18.4635 8.775
v -17.9375 18.3875 8.866
v -17.7025 18.6105 8.866
v -17.8855 18.3425 8.895
v -25.6275 9.3215 8.861
v -25.5875 9.2715 8.901
v -25.4745 9.1325 8.963
v -17.7535 18.2305 8.966
v -17.5565 18.4185 8.966
v -17.3225 18.5585 8.966
v -17.4245 18.7775 8.866
v -17.1165 18.8815 8.866
v -17.0645 18.6455 8.966
v -16.7945 18.9165 8.866
v -16.7945 18.6755 8.966
v 13.4105 18.9165 8.866
v 13.4105 18.6755 8.966
v 13.5175 18.9045 8.866
v 13.7065 19.0585 8.707
v 13.6205 18.8705 8.866
v 13.8375 18.9805 8.707
v 14.0695 18.9785 8.5
v 13.9485 18.8755 8.707
v 14.1745 18.8245 8.5
v 19.1325 9.6565 8.383
v 19.0935 9.6085 8.5
v 35.6735 4.5665 8.5
v 35.6005 4.5135 8.609
v 35.5925 -0.867499 8.5
v 35.4375 -0.607499 8.707
v 35.6465 -0.965499 8.388
v 35.2345 -0.305499 8.866
v 34.9955 0.003501 8.959
v 34.9435 0.071501 8.979
v 34.7435 0.298501 9
v 33.8365 1.1055 8
v 33.8365 1.1055 9
v 32.5125 1.8405 9
v 32.5125 1.8405 8
v 32.7875 0.926501 8
v 31.5245 1.4165 8
v 31.0495 2.2335 8
v 30.1805 1.5825 8
v 30.1805 1.5825 9
v 27.5745 0.926501 9
v 28.8375 1.4165 9
v 28.8375 1.4165 8
v 27.5745 0.926501 8
v 28.0595 1.9215 8
v 26.7095 1.2345 8
v 26.7095 1.2345 9
v 28.0595 1.9215 9
v 29.5355 2.2615 9
v 34.7985 3.9275 9
v 35.0595 4.1185 8.966
v 18.6755 9.1005 8.966
v 35.3035 4.2965 8.866
v 18.8415 9.3025 8.866
v 13.6395 18.5385 8.966
v 13.6075 18.5845 8.966
v 13.5675 18.6225 8.966
v 13.5195 18.6515 8.966
v 13.4665 18.6695 8.966
v 13.7125 18.8145 8.866
v 13.7915 18.7405 8.866
v 14.0345 18.7495 8.707
v 13.8515 18.6515 8.866
v 18.9835 9.4755 8.707
v 35.5125 4.4495 8.707
v 19.0435 9.5475 8.609
v 31.0495 2.2335 9
v 29.5355 2.2615 8
v 35.5335 -5.1765 5
v 24.7095 -4.4695 5
v 35.3805 -5.7085 5
v 25.0095 -5.7875 5
v 24.7095 -4.4695 9
v 25.0095 -5.7875 9
v 35.3805 -5.7085 9
v 25.6215 -6.9915 9
v 26.5085 -8.0105 9
v 27.6175 -8.7825 9
v 28.8805 -9.2605 9
v 30.2225 -9.4165 9
v 30.2225 -9.4165 5
v 28.8805 -9.2605 5
v 27.6175 -8.7825 5
v 26.5085 -8.0105 5
v 25.6215 -6.9915 5
v 31.5615 -9.2405 5
v 32.8175 -8.7425 5
v 31.5615 -9.2405 9
v 32.8175 -8.7425 9
v 33.9145 -7.9545 9
v 34.7865 -6.9225 9
v 34.7865 -6.9225 5
v 33.9145 -7.9545 5
v 35.5335 -5.1765 -5
v 24.7095 -4.4695 -5
v 35.3805 -5.7085 -5
v 35.3805 -5.7085 -9
v 25.0095 -5.7875 -9
v 25.0095 -5.7875 -5
v 25.6215 -6.9915 -9
v 25.6215 -6.9915 -5
v 26.5085 -8.0105 -5
v 27.6175 -8.7825 -5
v 28.8805 -9.2605 -5
v 30.2225 -9.4165 -5
v 30.2225 -9.4165 -9
v 28.8805 -9.2605 -9
v 27.6175 -8.7825 -9
v 26.5085 -8.0105 -9
v 31.5615 -9.2405 -9
v 32.8175 -8.7425 -9
v 31.5615 -9.2405 -5
v 32.8175 -8.7425 -5
v 33.9145 -7.9545 -5
v 34.7865 -6.9225 -5
v 34.7865 -6.9225 -9
v 33.9145 -7.9545 -9
# 691 verticies
vt 0.844622 1.80925
vt 0.845013 1.82843
vt 0.837892 1.80925
vt 0.844929 1.79215
vt 0.848923 1.74626
vt 0.997892 1.79215
vt 0.998199 1.80925
vt 0.998199 1.80945
vt 0.996146 1.85295
vt 0.998673 1.73055
vt 0.993884 1.74626
vt 0.989095 1.68775
vt 0.998646 1.73034
vt 0.998548 1.72979
vt 0.999874 1.51181
vt 0.999511 1.51247
vt 0.76752 1.33736
vt 0.766933 1.33916
vt 0.698264 1.02008
vt 0.699144 1.0189
vt 0.767631 1.33701
vt 0.699214 1.01883
vt 0.699563 1.01835
vt 0.767883 1.33628
vt 1 1.5116
vt 0.998785 1.71193
vt 0.857314 1.70419
vt 0.869602 1.66847
vt 0.940169 1.62428
vt 0.957804 1.64128
vt 0.973219 1.66847
vt 0.985493 1.70419
vt 0.921404 1.61853
vt 0.885017 1.64128
vt 0.902651 1.62428
vt 0.834681 1.80925
vt 0.83725 1.75712
vt 0.844832 1.70808
vt 0.835812 1.77456
vt 0.835532 1.77911
vt 0.835295 1.78355
vt 0.8351 1.78785
vt 0.83496 1.7919
vt 0.834848 1.79569
vt 0.834778 1.79908
vt 0.834723 1.80207
vt 0.834695 1.8046
vt 0.834681 1.80661
vt 0.834681 1.80807
vt 0.834681 1.80897
vt 0.160837 1.80807
vt 0.160837 1.80661
vt 0.158547 1.76083
vt 0.160823 1.8046
vt 0.160795 1.8021
vt 0.160739 1.79908
vt 0.16067 1.79569
vt 0.160558 1.7919
vt 0.160404 1.78785
vt 0.160209 1.78355
vt 0.159958 1.77911
vt 0.159678 1.77456
vt 0.151161 1.712
vt 0.1433 1.71387
vt 0.131096 1.67437
vt 0.038398 1.64405
vt 0.150966 1.75989
vt 0.153591 1.80925
vt 0.160837 1.80925
vt 0.160837 1.80897
vt 0.163839 1.80925
vt 0.837892 1.80897
vt 0.840224 1.76062
vt 0.837892 1.80807
vt 0.837906 1.80661
vt 0.83792 1.8046
vt 0.837948 1.8021
vt 0.83799 1.79908
vt 0.838074 1.79569
vt 0.838185 1.7919
vt 0.838339 1.78785
vt 0.838534 1.78355
vt 0.838786 1.77911
vt 0.163225 1.78355
vt 0.839065 1.77456
vt 0.162987 1.77911
vt 0.162708 1.77456
vt 0.847722 1.71165
vt 0.974671 1.6495
vt 0.956869 1.62144
vt 0.985046 1.67492
vt 0.988578 1.68612
vt 0.991888 1.69798
vt 0.994708 1.70988
vt 0.996872 1.72039
vt 0.997612 1.72441
vt 0.998213 1.72781
vt 0.998925 1.51354
vt 0.998101 1.51503
vt 0.766542 1.3403
vt 0.997082 1.51687
vt 0.765788 1.34263
vt 0.696798 1.02202
vt 0.697915 1.02053
vt 0.696449 1.01519
vt 0.69476 1.01876
vt 0.695961 1.02313
vt 0.694871 1.02459
vt 0.692568 1.02345
vt 0.69321 1.01512
vt 0.691465 1.02088
vt 0.689998 1.02886
vt 0.68944 1.02754
vt 0.687248 1.03468
vt 0.68877 1.02653
vt 0.68803 1.02591
vt 0.687248 1.0257
vt 0.687248 1.01734
vt 0.688742 1.01776
vt 0.687248 1.01016
vt 0.68937 1.01072
vt 0.69018 1.01894
vt 0.691381 1.01242
vt 0.689845 1.00534
vt 0.692316 1.00742
vt 0.69455 1.01075
vt 0.692903 1.00427
vt 0.695402 1.00798
vt 0.69751 1.01294
vt 0.695681 1.00704
vt 0.693098 1.00319
vt 0.690138 1.00198
vt 0.69025 1.0008
vt 0.687248 1.00118
vt 0.687248 1
vt 0.265502 1.00118
vt 0.265502 1
vt 0.25961 1.00277
vt 0.259498 1.00163
vt 0.253983 1.00749
vt 0.253773 1.00642
vt 0.248886 1.01509
vt 0.248607 1.01415
vt 0.24453 1.02514
vt 0.244223 1.02449
vt 0.137896 1.33698
vt 0.137673 1.33628
vt 0 1.51878
vt 0.000112 1.51899
vt 0.138008 1.33732
vt 0.244586 1.02525
vt 0.24534 1.02684
vt 0.249738 1.01786
vt 0.245647 1.0275
vt 0.138553 1.33902
vt 0.138916 1.3401
vt 0.001871 1.52159
vt 0.001061 1.52038
vt 0.001089 1.71852
vt 0.001871 1.71463
vt 0.002876 1.52308
vt 0.004091 1.52488
vt 0.139628 1.34228
vt 0.246611 1.02952
vt 0.247337 1.03104
vt 0.251079 1.02223
vt 0.254569 1.01065
vt 0.255491 1.01564
vt 0.259903 1.00617
vt 0.260378 1.01155
vt 0.265502 1.00465
vt 0.265502 1.01016
vt 0.687248 1.00465
vt 0.697873 1.01217
vt 0.767799 1.33652
vt 0.767548 1.33729
vt 0.998324 1.70971
vt 0.998604 1.71103
vt 0.998757 1.71179
vt 0.987908 1.67093
vt 0.856965 1.66504
vt 0.758276 1.36528
vt 0.265502 1.03468
vt 0.2625 1.03551
vt 0.259638 1.03791
vt 0.257055 1.04176
vt 0.254863 1.04693
vt 0.146595 1.36378
vt 0.252503 1.04193
vt 0.144612 1.35765
vt 0.013963 1.53959
vt 0.010346 1.53421
vt 0.013963 1.67059
vt 0.024756 1.6453
vt 0.042754 1.61839
vt 0.022494 1.67437
vt 0.010291 1.71387
vt 0.022494 1.94413
vt 0.038398 1.97444
vt 0.056912 1.99351
vt 0.076795 2
vt 0.096664 1.99351
vt 0.115193 1.97444
vt 0.131096 1.94413
vt 0.1433 1.90462
vt 0.150966 1.85863
vt 0.056912 1.62501
vt 0.115193 1.64405
vt 0.161284 1.75733
vt 0.163839 1.80897
vt 0.163839 1.80807
vt 0.163825 1.80661
vt 0.163811 1.8046
vt 0.163783 1.80207
vt 0.163741 1.79908
vt 0.163658 1.79569
vt 0.16356 1.7919
vt 0.163406 1.78785
vt 0.1538 1.70846
vt 0.141806 1.66549
vt 0.859911 1.66889
vt 0.876038 1.63511
vt 0.895042 1.61242
vt 0.915735 1.6023
vt 0.93679 1.60538
vt 0.985884 1.5372
vt 0.760413 1.35886
vt 0.989528 1.53057
vt 0.760762 1.35778
vt 0.762423 1.35279
vt 0.992935 1.5244
vt 0.76308 1.35078
vt 0.764211 1.34734
vt 0.995853 1.51909
vt 0.765062 1.34478
vt 0.693405 1.02653
vt 0.692568 1.02764
vt 0.690445 1.03045
vt 0.689984 1.03108
vt 0.265502 1.0257
vt 0.261732 1.02674
vt 0.261006 1.01856
vt 0.256706 1.02216
vt 0.25813 1.02976
vt 0.252824 1.02795
vt 0.254863 1.03461
vt 0.250269 1.03725
vt 0.252112 1.04113
vt 0.144291 1.35667
vt 0.144612 1.35768
vt 0.013963 1.65963
vt 0.01117 1.66722
vt 0.010388 1.66965
vt 0.006981 1.68012
vt 0.004091 1.69039
vt 0.006981 1.52918
vt 0.142755 1.35192
vt 0.142141 1.35002
vt 0.249543 1.03569
vt 0.14108 1.34679
vt 0.248272 1.03305
vt 0.140284 1.34433
vt 0.001871 1.6992
vt 0.265502 1.01734
vt 0.000475 1.51951
vt 0.000195 1.70659
vt 2.8e-05 1.70732
vt 0 1.70749
vt 0 1.72441
vt 0 1.80925
vt 0.002611 1.75989
vt 0.010025 1.68245
vt 2.8e-05 1.72421
vt 0.000126 1.72369
vt 0.000475 1.72181
vt 0.002611 1.85863
vt 0.010291 1.90462
vt 0.026809 1.63223
vt 0.045393 1.6076
vt 0.076795 1.61849
vt 0.126 1.63091
vt 0.107318 1.60677
vt 0.086862 1.59449
vt 0.065807 1.59477
vt 0.096664 1.62501
vt 0.000475 1.7053
vt 0.001089 1.70253
vt 0.083847 1.60122
vt 0.06286 1.60337
vt 0.104386 1.61204
vt 0.123208 1.63521
vt 0.139125 1.66923
vt 0.01036 1.68144
vt 0.006981 1.69299
vt 0.004091 1.70451
vt 0.141038 1.34665
vt 0.140326 1.34447
vt 0.142169 1.35012
vt 0.142727 1.35185
vt 0.144305 1.35667
vt 0.767143 1.3385
vt 0.766598 1.34017
vt 0.99697 1.7035
vt 0.994806 1.69448
vt 0.997724 1.7069
vt 0.991971 1.68401
vt 0.988634 1.67329
vt 0.985116 1.66306
vt 0.972451 1.63507
vt 0.953965 1.60958
vt 0.933537 1.59595
vt 0.891788 1.60677
vt 0.872939 1.6306
vt 0.912398 1.59498
vt 0.7659 1.34228
vt 0.99401 1.8714
vt 0.849202 1.87414
vt 0.857747 1.91589
vt 0.870132 1.95124
vt 0.885617 1.97801
vt 0.903252 1.99459
vt 0.92199 2
vt 0.940686 1.9939
vt 0.958223 1.97662
vt 0.97354 1.94929
vt 0.985716 1.9135
# 326 texture verticies
vn -0.999996 -0.00299573 0
vn -0.995603 -0.0936765 0
vn -0.99872 -0.0505715 0
vn 0 -1 0
vn 0 -0.999884 -0.0152458
vn 0 0 -1
vn -0.991723 0.128394 0
vn -0.991723 0.128394 0
vn -0.956778 0.290819 0
vn -0.929467 0.368904 0
vn 0.998298 -0.0583113 0
vn 0.985401 -0.170251 0
vn 0.999244 -0.0388668 0
vn 0.999982 0.00591887 0
vn 0.999922 -0.0125151 -4.75068e-06
vn 0.999589 -0.01483 -0.0245307
vn -0.873926 -0.485614 -0.0208013
vn -0.873898 -0.485813 -0.0169834
vn -0.842629 -0.537453 -0.033469
vn -0.874222 -0.483975 -0.0387899
vn 0.994799 -0.0147453 -0.100788
vn 0.997521 -0.0146077 -0.0688354
vn 0.985742 -0.0147737 -0.167616
vn 0.971173 -0.014539 -0.237931
vn 0.279053 0.917238 -0.284262
vn 0.285306 0.938319 -0.195342
vn 0.278756 0.917531 -0.283606
vn 0.266931 0.877926 -0.397484
vn 0.801497 0.428101 -0.41753
vn 0.794167 0.480126 -0.372528
vn 0.828199 0.442055 -0.344491
vn 0.827779 0.488468 -0.27601
vn 0.868277 0.463517 -0.176768
vn 0.842238 0.522185 -0.134004
vn 0.858878 0.506763 -0.0742986
vn 0.881548 0.470537 -0.0383167
vn 0.290461 0.955216 -0.056518
vn 0.290489 0.955858 -0.0441786
vn 0.286875 0.943261 -0.167216
vn 0.99963 -0.0150379 -0.0226605
vn 0.290775 0.956255 0.0320164
vn 0.290778 0.95626 0.0318625
vn 0.99963 -0.0150469 0.0226507
vn 0.999697 -0.014849 0.0196335
vn 0.99995 -0.00997861 0
vn -0.991677 -0.128748 0
vn -0.999006 -0.0445714 0
vn 0.991723 -0.128394 0
vn 0.956778 -0.290819 0
vn 0.929467 -0.368904 0
vn 0.856594 -0.515991 0
vn 0.811036 -0.584996 0
vn 0.704606 -0.709599 0
vn 0.643764 -0.765224 0
vn -0.856692 -0.515828 0
vn -0.92938 -0.369124 0
vn -0.956637 -0.291283 0
vn 0 0 1
vn -0.811257 -0.58469 0
vn -0.283917 -0.958849 0
vn -0.203667 -0.97904 0
vn -0.4371 -0.899413 0
vn -0.041106 -0.999155 0
vn 0.4371 -0.899413 0
vn 0.283945 -0.958841 0
vn 0.203726 -0.979028 0
vn 0.0411962 -0.999151 0
vn 0.51003 -0.860157 0
vn -0.510029 -0.860157 0
vn -0.643906 -0.765105 0
vn -0.704871 -0.709335 0
vn 0.991723 -0.128394 0
vn 0.999005 -0.0445868 0
vn 1.82157e-07 -0.999847 0.0174911
vn -0.991723 0.128394 0
vn -0.999641 -0.0268047 0
vn -0.999917 0.0128803 0
vn 0.98039 -0.197064 0
vn 0.999924 0.0123659 0
vn 0.999752 0.0222912 0
vn 0.991677 0.128748 0
vn 0.956637 0.291283 0
vn 0.92938 0.369124 0
vn -0.856594 0.515991 0
vn -0.956778 0.290819 0
vn 0.901365 -0.433059 0
vn 0.951778 -0.306789 0
vn 0.988939 -0.143625 0.0370199
vn 0.984196 -0.176638 0.0125239
vn 0.988931 -0.145365 0.0297421
vn 0.990421 -0.132438 0.0390673
vn 0.991516 -0.11985 0.0503287
vn 0.991993 -0.11228 0.0578126
vn 0.992077 -0.109586 0.0614273
vn 0.992115 -0.109599 0.0608009
vn 0.992098 -0.111736 0.0570742
vn 0.992154 -0.113406 0.0526177
vn 0.992257 -0.116102 0.0441102
vn 0.992419 -0.118668 0.0319612
vn 0.992553 -0.120781 0.0158372
vn 1.37927e-06 -0.970877 0.239578
vn 1.8055e-06 -0.988224 0.153014
vn 2.34982e-07 -0.946667 0.322213
vn 0.000181167 -0.923606 0.383342
vn -0.987397 -0.155226 0.0308513
vn -0.993036 -0.113733 0.0307172
vn -0.992912 -0.111165 0.0420409
vn -0.99285 -0.10868 0.0493629
vn -0.992825 -0.106979 0.0534309
vn -0.992859 -0.10484 0.056925
vn -0.9928 -0.105708 0.0563298
vn -0.99249 -0.112026 0.0491274
vn -0.991884 -0.120203 0.0414344
vn -0.990459 -0.134287 0.0309606
vn -0.988735 -0.148048 0.0220415
vn -4.42611e-07 -0.193964 0.981009
vn 0.000167536 -0.130336 0.99147
vn -1.42977e-07 -0.320781 0.947153
vn -1.35821e-07 -0.0253186 0.999679
vn -0.984274 -0.176374 0.00988348
vn -0.960895 -0.276912 0
vn -0.903566 -0.428449 0
vn -0.864448 -0.502722 0
vn 0.843344 0.537374 0
vn 0.887243 0.461302 0
vn 0.737426 0.675429 0
vn 0.675427 0.737427 0
vn 0.99903 0.0440248 0
vn 0.976309 0.21638 0
vn 0.95369 0.30079 0
vn 0.999034 -0.043934 0
vn -0.993145 -0.116674 0.00712587
vn -0.993143 -0.115907 0.0152566
vn 0 -0.999884 0.0152457
vn 1.80555e-06 -0.994218 0.107382
vn -1.81752e-07 -0.999847 -0.0174911
vn -1.80153e-06 -0.994218 -0.107381
vn 0.987163 -0.156681 -0.0309705
vn 0.992955 -0.118275 -0.00722368
vn 0.992952 -0.1175 -0.0154664
vn 0.992869 -0.116018 -0.0273903
vn 0.992828 -0.113087 -0.0387897
vn 0.992733 -0.109524 -0.0498592
vn 0.992701 -0.106011 -0.0575057
vn 0.992649 -0.106174 -0.0581028
vn 0.992596 -0.108723 -0.0541513
vn 0.992382 -0.112574 -0.0500578
vn 0.991791 -0.120627 -0.0424237
vn 0.990391 -0.134546 -0.0319884
vn 0.988693 -0.14817 -0.0230694
vn 1.38526e-07 -0.320777 -0.947155
vn 4.42435e-07 -0.193966 -0.981008
vn -0.000167481 -0.130343 -0.991469
vn 4.41664e-07 -0.0823693 -0.996602
vn 0.000168363 -0.130347 -0.991468
vn 0 -0.00623215 -0.999981
vn 0.984099 -0.177314 -0.0104002
vn 0.960079 -0.27973 0
vn 0.901556 -0.432663 0
vn 0.861759 -0.507318 0
vn -0.811036 0.584996 0
vn -0.704606 0.709599 0
vn -0.643764 0.765224 0
vn 0.704871 0.709335 0
vn 0.811257 0.58469 0
vn 0.856692 0.515828 0
vn 0.643906 0.765105 0
vn -0.462642 -0.886545 0
vn -0.594272 -0.804264 0
vn -0.65996 -0.751173 -0.0138277
vn -0.740805 -0.67158 -0.0137125
vn -0.786519 -0.617566 7.44969e-05
vn -0.80725 -0.590209 0
vn -0.842655 -0.538337 -0.0112304
vn -0.864817 -0.500484 -0.0401011
vn -0.874068 -0.480936 -0.0685958
vn -0.875417 -0.477444 -0.0754468
vn -0.874731 -0.4806 -0.0621984
vn 0.931571 -0.013996 -0.363291
vn 0.959806 -0.014422 -0.280293
vn 0.914291 -0.0137022 -0.404826
vn 0.87659 -0.0130595 -0.48106
vn 0.248961 0.819062 -0.51687
vn 0.261874 0.861443 -0.43513
vn 0.251771 0.829071 -0.499252
vn 0.235896 0.776346 -0.5845
vn 0.488424 0.590022 -0.642897
vn 0.687351 0.415602 -0.595671
vn 0.73057 0.389779 -0.56066
vn 0.742509 0.438663 -0.506217
vn 0.67404 0.558249 -0.483764
vn 0.554436 0.460318 -0.693331
vn 0.616488 0.364064 -0.698141
vn 0.521171 0.31495 -0.793213
vn 0.396962 0.331327 -0.855946
vn 0.423583 0.566031 -0.707239
vn 0.2991 0.40102 -0.865865
vn 0.210931 0.179803 -0.960822
vn 0.166097 0.231143 -0.958637
vn 0.0483901 0.0955278 -0.99425
vn 0.11174 0.26168 -0.958665
vn 0.0533102 0.279644 -0.958623
vn 0.0110886 0.284335 -0.958661
vn 0.0255917 0.500366 -0.865436
vn 0.10283 0.489423 -0.865963
vn 0.0362033 0.706457 -0.70683
vn 0.147776 0.691096 -0.707495
vn 0.206529 0.455485 -0.865956
vn 0.294275 0.643161 -0.706928
vn 0.184854 0.846391 -0.499451
vn 0.360644 0.787407 -0.499926
vn 0.520519 0.691642 -0.500691
vn 0.402523 0.877661 -0.260165
vn 0.582179 0.770634 -0.259212
vn 0.747887 0.618033 -0.24228
vn 0.631019 0.773065 -0.0646928
vn 0.450904 0.890205 -0.0649632
vn 0.573179 0.816875 0.0646563
vn 0.385566 0.920331 0.0657979
vn 0.404986 0.876986 0.258616
vn 0.208533 0.943032 0.259238
vn 0.178939 0.98162 0.0663583
vn 0.0533662 0.964336 0.259245
vn 0.0354254 0.997245 0.0651751
vn -0.0519192 0.964573 0.258658
vn -0.0723314 0.995262 0.0649693
vn -0.206833 0.943386 0.259312
vn -0.249765 0.966099 0.0653461
vn -0.403983 0.877007 0.260108
vn -0.451582 0.889821 0.0655086
vn -0.599258 0.763347 0.24123
vn -0.633075 0.771387 0.0646366
vn -0.712991 0.688888 0.13068
vn -0.731707 0.67754 0.0744532
vn -0.638201 0.748476 0.18023
vn -0.656295 0.75312 0.0456846
vn -0.470144 0.881424 0.045341
vn -0.461172 0.863967 0.202191
vn -0.57229 0.753129 0.32447
vn -0.705707 0.65286 0.275232
vn -0.673383 0.63694 0.375317
vn -0.539164 0.68874 0.484706
vn -0.631951 0.585208 0.508104
vn -0.565666 0.700622 0.434914
vn -0.52062 0.64801 0.555912
vn -0.404796 0.759055 0.509878
vn -0.438035 0.821184 0.365762
vn -0.931953 5.32077e-05 0.362578
vn -0.913914 5.32138e-05 0.405909
vn -0.87579 5.12422e-05 0.482692
vn -0.820954 -0.000834274 0.570994
vn -0.793519 -0.00166514 0.608543
vn -0.694656 -0.000836084 0.719342
vn -0.327142 0.613171 0.719027
vn -0.486654 0.601571 0.633466
vn -0.381988 0.71628 0.583977
vn -0.583918 0.552283 0.594998
vn -0.520014 0.481507 0.705504
vn -0.443823 0.567986 0.693118
vn -0.361606 0.786883 0.500057
vn -0.294016 0.64351 0.706718
vn -0.184369 0.846013 0.50027
vn -0.149052 0.691369 0.70696
vn -0.0460554 0.864922 0.499788
vn -0.0367465 0.706669 0.70659
vn 0.0481322 0.864892 0.499645
vn 0.0390699 0.70664 0.706494
vn 0.187751 0.845629 0.499661
vn 0.155673 0.689388 0.707467
vn 0.36569 0.784555 0.500743
vn 0.584205 0.769047 0.259367
vn 0.524242 0.688901 0.500585
vn 0.736082 0.625212 0.259408
vn 0.735546 0.674351 0.0649802
vn 0.854378 0.516515 0.0570159
vn 0.782227 0.619599 -0.0649408
vn 0.825972 0.490798 0.277285
vn 0.87432 0.46696 0.132339
vn 0.851525 0.454425 0.261538
vn 0.28241 0.928826 0.239846
vn 0.287417 0.945258 0.154526
vn 0.279175 0.918223 0.280941
vn 0.271067 0.891557 0.362834
vn 0.923283 -0.0138392 0.38387
vn 0.958029 -0.0143732 0.28631
vn 0.969706 -0.0143859 0.243852
vn 0.984267 -0.0146669 0.176079
vn 0.994605 -0.0146757 0.102688
vn 0.997253 -0.0146287 0.0726133
vn -0.834948 -0.550274 0.00784136
vn -0.835115 -0.549758 0.0186795
vn -0.807674 -0.588853 0.0302441
vn 0.769723 -0.638378 0
vn 0.86298 -0.505238 0
vn 0.714814 -0.699315 0
vn 0.017376 0.0283051 0.999448
vn 0.0552043 0.0790094 0.995344
vn -0.00291144 0.0782498 0.99693
vn -0.0141832 0.0770344 0.996928
vn -0.0302867 0.0723016 0.996923
vn -0.0524331 0.0692284 0.996222
vn -0.047197 0.0446607 0.997887
vn -0.0181708 0.0195975 0.999643
vn -0.115998 0.106623 0.98751
vn -0.120487 0.157326 0.980169
vn -0.0407958 0.0355609 0.998535
vn -0.173564 0.130654 0.976117
vn -0.0905995 -0.000244771 0.995887
vn 0.442895 -0.896573 0
vn 0.36643 -0.930446 0
vn 0.575473 -0.81782 0
vn 0.641943 -0.76664 0.0131078
vn -0.737426 0.675428 0
vn -0.675428 0.737426 0
vn -0.843229 0.537554 0
vn -0.887044 0.461684 0
vn 0.887161 -0.46146 0
vn 0.953646 -0.300931 0
vn 0.980795 -0.195042 0
vn 0.991398 -0.130884 0
vn 0.737426 -0.675428 0
vn 0.675428 -0.737426 0
vn 0.843297 -0.537448 0
vn 0.537553 -0.84323 0
vn 0.461683 -0.887045 0
vn 0.675428 -0.737426 0
vn 0.537448 -0.843297 0
vn 0.461459 -0.887162 0
vn 0.300931 -0.953646 0
vn 0.216408 -0.976303 0
vn -0.887243 -0.461302 0
vn -0.95369 -0.30079 0
vn -0.976309 -0.21638 0
vn -0.991386 -0.130974 0
vn -0.992574 -0.120607 -0.0158142
vn -0.992583 -0.121337 -0.00746767
vn -0.989056 -0.142919 -0.0366448
vn -0.992476 -0.11916 -0.0281481
vn -1.37619e-06 -0.970877 -0.239577
vn -1.80147e-06 -0.988224 -0.153013
vn -2.38007e-07 -0.946667 -0.322213
vn -0.992404 -0.116295 -0.0401133
vn 0.000180628 -0.923607 -0.383341
vn -2.37976e-07 -0.897065 -0.441899
vn -8.30454e-06 -0.830933 -0.556372
vn -0.992267 -0.112634 -0.0521596
vn -0.99219 -0.109312 -0.0600829
vn -0.992144 -0.109478 -0.060544
vn -8.30304e-06 -0.75066 -0.660689
vn 0.00017564 -0.792929 -0.609313
vn 8.24826e-06 -0.660681 -0.750666
vn -0.992196 -0.10887 -0.0607844
vn 0.000192149 -0.609062 -0.793123
vn 8.24975e-06 -0.556365 -0.830938
vn 1.38481e-07 -0.441877 -0.897076
vn -0.992014 -0.11228 -0.0574539
vn -0.991622 -0.11932 -0.0494842
vn 0.000180759 -0.383318 -0.923617
vn -0.990745 -0.129269 -0.0413937
vn 0.999653 -0.0263585 0
vn -0.773232 -0.634123 0
vn -0.865078 -0.501637 0
vn -0.902941 -0.429765 0
vn -0.952375 -0.304928 0
vn -0.984156 -0.176865 -0.012481
vn -0.0145311 0.0180206 -0.999732
vn -0.057534 0.0525135 -0.996961
vn -0.0494378 0.0605364 -0.996941
vn -0.0353718 0.069948 -0.996923
vn -0.0196797 0.0758448 -0.996925
vn -0.00484063 0.065204 -0.99786
vn 0.0222313 0.020549 -0.999542
vn 0.507225 -0.861814 0
vn 0.578244 -0.815864 0
vn 0.355717 -0.934594 0
vn 0.275209 -0.961384 0
vn -0.4371 0.899413 0
vn -0.51003 0.860157 0
vn -0.283945 0.958841 0
vn -0.203726 0.979028 0
vn -0.0411962 0.999151 0
vn 0.110022 -0.993929 0
vn 0.0253413 -0.999679 0
vn -0.142445 -0.989803 0
vn -0.225555 -0.97423 0
vn 0.283917 0.958849 0
vn 0.203667 0.97904 0
vn 0.4371 0.899413 0
vn -0.385666 -0.922639 0
vn 0.0295461 0.0353632 -0.998938
vn 0.0697251 0.100492 -0.992492
vn 0.141917 0.123359 -0.982162
vn 0.0931295 -0.0017779 -0.995652
vn 0.152913 0.186405 -0.9705
vn 0.21233 0.246179 -0.945681
vn 0.296206 0.283064 -0.912215
vn 0.314503 -0.00479939 -0.949244
vn 0.311047 0.329727 -0.891364
vn 0.3673 0.447072 -0.815608
vn 0.198347 0.6523 -0.731548
vn 0.69439 -0.0111354 -0.719513
vn 0.542858 -0.00811874 -0.839785
vn 0.44133 0.461274 -0.76971
vn 0.454111 0.265926 -0.850333
vn 0.330206 0.201316 -0.922191
vn 0.221468 0.134209 -0.965888
vn 0.145778 0.0824619 -0.985875
vn 0.041106 0.999155 0
vn 0.706888 -0.707326 0
vn 0.764458 -0.644673 0
vn -0.0165638 0.258683 -0.96582
vn -0.0603878 0.251368 -0.966006
vn -0.11178 0.48746 -0.865961
vn -0.213635 0.451984 -0.866066
vn -0.112577 0.232925 -0.965957
vn -0.300718 0.379987 -0.874745
vn -0.150465 0.188194 -0.970538
vn -0.280968 0.26184 -0.923307
vn -0.1725 0.160789 -0.971798
vn -0.186999 0.209009 -0.959868
vn -0.0846042 0.0991038 -0.991474
vn -0.203793 0.102448 -0.973639
vn -0.036156 0.0328184 -0.998807
vn -0.077425 0.000689814 -0.996998
vn -0.227196 5.96718e-05 -0.973849
vn -0.351508 -0.00194807 -0.936183
vn 0.779382 -0.626549 0.000219197
vn 0.760042 -0.649874 0
vn 0.795527 -0.605145 -0.0306098
vn 0.795053 -0.606356 -0.0149585
vn 0.81785 -0.573714 -0.0444288
vn -0.69409 -0.000472525 -0.719888
vn -0.379193 0.262228 -0.887383
vn -0.452717 -0.000655075 -0.891654
vn -0.225814 0.302864 -0.925895
vn -0.308938 0.359659 -0.880456
vn -0.386238 0.356321 -0.850797
vn -0.377581 0.468277 -0.798842
vn -0.442206 0.418563 -0.793259
vn -0.429926 0.544966 -0.719845
vn -0.525909 0.486801 -0.697456
vn -0.432372 0.499321 -0.750822
vn -0.510962 0.597575 -0.617917
vn -0.320794 0.601082 -0.731978
vn -0.381987 0.716278 -0.583979
vn -0.792723 -0.000626942 -0.609581
vn -0.681562 0 -0.73176
vn -0.857161 -0.000449511 -0.515048
vn -0.866834 0 -0.498597
vn -0.404796 0.759055 -0.509878
vn -0.538112 0.663286 -0.520084
vn -0.535475 0.719199 -0.44274
vn -0.670665 0.625312 -0.398991
vn -0.631995 0.585265 -0.507984
vn -0.571228 0.552928 -0.606604
vn -0.529574 0.672604 -0.516871
vn -0.300156 0.640792 -0.706606
vn -0.36559 0.784822 -0.500399
vn -0.155545 0.690174 -0.706729
vn -0.0292571 0.500237 -0.865394
vn -0.0402277 0.706558 -0.706511
vn -0.188967 0.844791 -0.500619
vn -0.0484093 0.864574 -0.500169
vn 0.0449361 0.864983 -0.499785
vn -0.0530934 0.964515 -0.258634
vn 0.0522705 0.964699 -0.258114
vn 0.206118 0.943537 -0.259332
vn 0.071522 0.995281 -0.0655839
vn 0.249144 0.966189 -0.0663825
vn -0.0361894 0.997217 -0.0651731
vn -0.179267 0.981643 -0.065111
vn -0.209129 0.942855 -0.259403
vn -0.386047 0.920133 -0.0657484
vn -0.406596 0.875938 -0.25964
vn -0.591572 0.802819 -0.0743294
vn -0.594056 0.755029 -0.277539
vn -0.720654 0.681451 -0.127606
vn -0.705707 0.65286 -0.27523
vn -0.6139 0.761064 -0.209546
vn -0.604827 0.793972 -0.0615881
vn -0.725754 0.68659 -0.0433162
vn -0.466996 0.875288 -0.12564
vn -0.451165 0.845693 -0.285051
vn -0.969832 6.69201e-05 -0.243774
vn -0.984188 -3.80873e-05 -0.177128
vn -0.994684 0.000162889 -0.102975
vn -0.99714 0.000225108 -0.0755721
vn -0.999837 0.000152913 -0.0180609
vn -0.999793 0 -0.0203254
vn -0.999918 0.000101584 0.0128383
vn -0.998637 -0.0521867 0
vn -0.999054 -0.0434823 0
vn -0.999762 -0.0218198 0
vn 0.859847 -0.510082 0.0218986
vn 0.859829 -0.510211 0.0194576
vn 0.82785 -0.559982 0.032935
vn 0.860144 -0.508769 0.0361438
vn -0.995145 0.000158627 0.0984165
vn -0.997789 0.000315484 0.0664599
vn -0.98586 -2.59354e-05 0.16757
vn -0.970743 8.90271e-07 0.240122
vn -0.959796 1.94548e-06 0.280697
vn -0.454624 0.852523 0.257919
vn 0.861019 -0.504826 0.0616155
vn 0.861444 -0.502426 0.0740385
vn -0.976363 0.216137 0
vn -0.953629 0.300983 0
vn -1 4.52228e-05 0
vn -0.965905 -0.258895 0
vn -0.886962 -0.461842 0
vn -0.843182 -0.537628 0
vn -0.737426 -0.675428 0
vn -0.675428 -0.737426 0
vn 0.953629 -0.300983 0
vn 0.887044 -0.461684 0
vn 0.843229 -0.537554 0
vn 0.737426 -0.675428 0
vn 0.9659 -0.258917 0
vn 0.976303 -0.216407 0
vn 1 4.54599e-05 0
vn -0.537448 0.843297 0
vn -0.461459 0.887162 0
vn -0.675428 0.737426 0
vn -0.0439349 0.999034 0
vn -0.216408 0.976303 0
vn -0.300931 0.953646 0
vn 0.675427 0.737427 0
vn 0.537373 0.843345 0
vn 0.461301 0.887244 0
vn -0.598355 -0.801231 0
vn -0.719257 -0.694744 0
vn -0.53143 -0.847102 0
vn 0.569329 -0.822078 -0.00725805
vn 0.564459 -0.825461 0
vn 0.398142 -0.917324 0
vn 0.687324 -0.726287 -0.00962575
vn 0.322546 -0.946554 0
vn 0.166416 -0.986056 0
vn 0.0858781 -0.996306 0
vn -0.0752464 -0.997165 0
vn -0.155833 -0.987783 0
vn 0.216382 0.976309 0
vn 0.0440258 0.99903 0
vn 0.300791 0.95369 0
vn -0.312451 -0.949934 0
vn -0.38848 -0.921457 0
vn -0.976363 0.216137 0
vn -0.999041 0.0437912 0
vn -0.999465 -0.0327192 0
vn -0.980865 -0.194689 0
vn -0.953585 -0.301125 0
vn -0.537628 -0.843182 0
vn -0.461841 -0.886963 0
vn -0.301124 -0.953585 0
vn -0.216164 -0.976357 0
vn -0.0437013 -0.999045 0
vn 0.0437917 -0.999041 0
vn 0.216137 -0.976363 0
vn 0.300983 -0.95363 0
vn 0.976363 -0.216137 0
vn 0.991476 -0.13029 0
vn -0.976357 -0.216164 0
vn -0.999535 0 0.0304894
vn -0.47054 0.881703 -0.0345173
vn 0.823314 -0.567316 -0.0175126
vn 0.823334 -0.567236 -0.0190934
vn 0.823956 -0.565639 -0.033909
vn 0.82504 -0.562239 -0.0565444
vn 0.825663 -0.560224 -0.0665576
vn 0.824894 -0.561784 -0.0628367
vn -0.922551 1.68471e-05 -0.385875
vn -0.923082 8.42337e-06 -0.384602
vn -0.958511 -1.74354e-05 -0.285055
vn -0.588473 0.731199 -0.345031
vn -0.438035 0.821185 -0.36576
vn -0.0954705 0.0923324 -0.991141
vn -0.537373 -0.843345 0
vn -0.461301 -0.887244 0
vn -0.675427 -0.737427 0
vn -0.300791 -0.95369 0
vn -0.216382 -0.976309 0
vn -0.0440258 -0.99903 0
vn 0.0439349 -0.999034 0
vn -0.737426 -0.675429 0
vn -0.843344 -0.537374 0
vn -0.216408 0.976303 0
vn -0.0419761 -0.999119 0
vn 0.124331 -0.992241 0
vn 0.207156 -0.978308 0
vn -0.712985 -0.70118 0
vn -0.769143 -0.639077 0
vn -0.586938 -0.809632 0
vn -0.517035 -0.855964 0
vn -0.367746 -0.929926 0
vn -0.288346 -0.957526 0
vn -0.125456 -0.992099 0
vn 0.724329 -0.689332 0.0130204
vn 0.771034 -0.636794 -3.78606e-05
vn 0.792007 -0.610512 0
vn 0.828292 -0.56017 0.0118652
vn 0.851228 -0.523189 0.041051
vn 0.860082 -0.505923 0.0655821
vn -0.707107 0 0.707107
vn -0.540703 0 0.841214
vn -0.349382 0.269585 0.897361
vn -0.382862 0.475147 0.792244
vn -0.446182 0.51682 0.730629
vn -0.455165 0.429807 0.779802
vn -0.373437 0.345343 0.860978
vn -0.317732 0.408025 0.855899
vn -0.299047 0.281266 0.911844
vn -0.324333 0.379052 0.866677
vn -0.258732 0.321272 0.910957
vn -0.31488 -6.28476e-05 0.949131
vn -0.18366 0.219636 0.958138
vn -0.202397 0.186157 0.961447
vn -0.169268 0.219467 0.960824
vn -0.104205 0.236642 0.965993
vn -0.206071 0.455606 0.866001
vn -0.103591 0.489207 0.865994
vn -0.0512936 0.25354 0.965964
vn -0.0252481 0.500177 0.865555
vn -0.0120263 0.258893 0.965831
vn 0.0294124 0.49985 0.865613
vn 0.0164787 0.258991 0.965739
vn 0.111295 0.487671 0.865904
vn 0.299023 0.641056 0.706847
vn 0.213277 0.452455 0.865908
vn 0.429663 0.561594 0.707108
vn 0.660217 0.560335 0.500138
vn 0.539826 0.456482 0.707257
vn 0.736804 0.437874 0.515156
vn 0.815522 0.435545 0.381084
vn 0.765053 0.408344 0.497945
vn 0.255272 0.839493 0.479674
vn 0.266268 0.875716 0.402769
vn 0.249121 0.819259 0.516482
vn 0.234614 0.7716 0.591261
vn 0.85714 -0.0132274 0.514914
vn 0.865813 -0.0129055 0.5002
vn 0.792439 -0.012371 0.609826
vn 0.693972 -0.0107677 0.719922
vn -0.836733 -0.543749 0.0649163
vn -0.829267 -0.557085 0.0444084
vn -0.837254 -0.542778 0.0663095
vn 0.92288 -0.013891 0.384837
vn -0.836294 -0.545687 0.0532759
vn -0.807133 -0.590197 0.0142826
vn -0.792725 -0.60958 -0.000241081
vn -0.772809 -0.634639 0
vn -0.700147 -0.713932 0.00979986
vn -0.583442 -0.812121 0.00738979
vn -0.57855 -0.815647 0
vn -0.412785 -0.910828 0
vn -0.336971 -0.941515 0
vn 0.510029 0.860157 0
vn 0.379699 -0.92511 0
vn 0.52433 -0.851515 0
vn 0.592101 -0.805864 0
vn 0.302834 -0.953043 0
vn 0.0241209 0.0175633 0.999555
vn 0.192281 0.0756088 0.978423
vn 0.0785391 -0.000595667 0.996911
vn 0.139802 0.195877 0.970612
vn 0.352499 0.227466 0.907747
vn 0.452383 -0.00738437 0.891793
vn 0.287725 0.373283 0.881971
vn 0.245251 0.144758 0.958591
vn 0.221777 0.178483 0.958623
vn 0.178759 0.221426 0.958653
vn 0.127756 0.254108 0.958701
vn 0.0689684 0.276126 0.958644
vn 0.305904 0.39564 0.865963
vn 0.383294 0.321145 0.865998
vn 0.598788 0.360713 0.715079
vn 0.429715 0.25747 0.865479
vn 0.442142 0.46217 0.768707
vn 0.198527 0.652902 0.730962
vn 0.485116 0.585993 0.649057
vn 0.681645 -0.0101095 0.731613
vn -0.0994599 -0.995042 0
vn -0.180306 -0.983611 0
vn 0.0629154 -0.998019 0
vn 0.144446 -0.989513 0
vn 0.229626 -0.00345538 0.973273
vn 0.352776 -0.00707795 0.935681
vn -0.152318 -0.000734253 0.988331
vn -0.83546 -0.548321 0.0367561
vn 0.289202 0.951088 0.108602
vn 0.881723 0.470631 0.0327199
vn 0.793022 -0.0133409 -0.609047
vn 0.821763 -0.0130013 -0.569681
vn 0.70642 -0.0105303 -0.707714
vn 0.151985 -0.003406 -0.988377
vn -0.988935 -0.145364 -0.0296282
vn -0.000180483 -0.383314 -0.923618
vn -0.000175608 -0.609308 -0.792934
vn -0.00019229 -0.793118 -0.609068
vn -0.000181103 -0.923607 -0.383341
vn 0.000180515 -0.383317 0.923617
vn -1.4293e-07 -0.441877 0.897075
vn -8.25641e-06 -0.556364 0.830939
vn 0.000175666 -0.609308 0.792934
vn -8.25491e-06 -0.660682 0.750666
vn 8.31033e-06 -0.75066 0.660688
vn 0.000192369 -0.793119 0.609067
vn 8.31183e-06 -0.830933 0.556372
vn 2.34951e-07 -0.897065 0.441899
vn 0.992562 -0.121509 0.00747831
vn -0.000180698 -0.923607 0.383341
vn -0.000175704 -0.792931 0.609312
vn -0.00019222 -0.609063 0.793122
vn -0.000180799 -0.383322 0.923615
vn -0.000168419 -0.13034 0.991469
vn 0 -0.0342867 0.999412
vn -0.953615 -0.30103 0
vn -0.990603 -0.136768 0
vn -0.994145 -0.108054 0
vn -0.925554 -0.378616 0
vn -0.0337646 -0.99943 0
vn 0.0487195 -0.998812 0
vn -0.196283 -0.980547 0
vn -0.27632 -0.961066 0
vn -0.69799 -0.716108 0
vn -0.805401 -0.592731 0
vn -0.851435 -0.52446 0
vn -0.502252 -0.864721 0
vn -0.636595 -0.771198 0
vn -0.429307 -0.903159 0
vn 0.443152 -0.896447 0
vn 0.291128 -0.956684 0
vn 0.211167 -0.97745 0
vn 0.515242 -0.857045 0
vn 0.933214 -0.359322 0
vn 0.859231 -0.511587 0
vn 0.814125 -0.580689 0
vn 0.708461 -0.70575 0
vn 0.647911 -0.761716 0
vn 0.974651 -0.223732 0
vn -0.986232 -0.165367 0
vn 0.859231 -0.511587 0
vn 0.999558 0.0297208 0
# 742 normals
usemtl Explorer_Default
f 1/1/1 2/1/1 3/2/2
f 3/2/2 4/1/3 1/1/1
f 4/1/4 5/3/5 1/1/4
f 5/3/6 6/4/6 1/1/6
f 1/1/1 6/4/7 7/4/8
f 7/4/8 6/4/7 8/5/9
f 7/4/8 8/5/9 9/5/10
f 9/5/6 10/6/6 7/4/6
f 10/6/6 11/7/6 7/4/6
f 7/4/6 11/7/6 12/8/6
f 7/4/6 12/8/6 2/1/6
f 2/1/6 12/8/6 13/9/6
f 14/8/11 13/9/12 12/8/13
f 15/7/14 14/8/11 12/8/13
f 16/7/15 14/8/11 15/7/14
f 17/10/16 16/7/15 15/7/14
f 15/7/6 18/6/6 17/10/6
f 17/10/6 18/6/6 19/11/6
f 17/10/6 19/11/6 20/12/6
f 21/13/17 17/10/18 20/12/19
f 20/12/19 22/14/20 21/13/17
f 23/15/21 21/13/22 22/14/23
f 23/15/21 22/14/23 24/16/24
f 25/17/25 23/15/26 24/16/27
f 25/17/25 24/16/27 26/18/28
f 26/18/29 27/19/30 25/17/31
f 25/17/31 27/19/30 28/20/32
f 25/17/31 28/20/32 29/21/33
f 28/20/32 30/22/34 29/21/33
f 29/21/33 30/22/34 31/23/35
f 29/21/33 31/23/35 32/24/36
f 32/24/37 33/25/38 29/21/39
f 29/21/39 33/25/38 23/15/26
f 23/15/21 33/25/40 17/10/16
f 32/24/37 34/24/41 33/25/38
f 33/25/38 34/24/41 35/25/42
f 33/25/40 35/25/43 16/7/15
f 16/7/15 35/25/43 36/26/44
f 16/7/15 36/26/44 37/7/45
f 38/6/46 16/7/47 37/7/47
f 39/6/46 38/6/46 37/7/47
f 39/6/6 37/7/6 40/4/6
f 41/5/6 39/6/6 40/4/6
f 40/4/48 42/5/49 41/5/50
f 41/5/50 42/5/49 43/27/51
f 41/5/50 43/27/51 44/27/52
f 44/27/52 43/27/51 45/28/53
f 44/27/52 45/28/53 46/28/54
f 46/28/6 47/29/6 44/27/6
f 44/27/6 47/29/6 48/30/6
f 44/27/6 48/30/6 49/31/6
f 49/31/6 50/32/6 44/27/6
f 44/27/6 50/32/6 51/11/6
f 44/27/6 51/11/6 39/6/6
f 50/32/55 52/11/56 51/11/57
f 51/11/57 52/11/56 38/6/46
f 53/4/58 38/6/58 52/11/58
f 53/4/58 52/11/58 42/5/58
f 50/32/55 54/32/59 52/11/56
f 43/27/58 52/11/58 54/32/58
f 43/27/58 54/32/58 55/31/58
f 55/31/58 56/30/58 43/27/58
f 43/27/58 56/30/58 57/29/58
f 47/29/60 57/29/61 56/30/62
f 58/33/63 57/29/61 47/29/60
f 59/34/6 58/33/6 47/29/6
f 60/35/6 58/33/6 59/34/6
f 59/34/64 61/35/65 60/35/66
f 60/35/66 61/35/65 62/33/67
f 61/35/58 63/34/58 62/33/58
f 62/33/58 63/34/58 57/29/58
f 45/28/58 57/29/58 63/34/58
f 59/34/64 63/34/68 61/35/65
f 46/28/54 63/34/68 59/34/64
f 60/35/66 62/33/67 58/33/63
f 58/33/63 62/33/67 57/29/61
f 48/30/69 56/30/62 55/31/70
f 49/31/71 55/31/70 54/32/59
f 49/31/71 54/32/59 50/32/55
f 48/30/69 55/31/70 49/31/71
f 47/29/60 56/30/62 48/30/69
f 59/34/6 47/29/6 46/28/6
f 46/28/54 45/28/53 63/34/68
f 43/27/58 57/29/58 45/28/58
f 42/5/58 52/11/58 43/27/58
f 40/4/48 53/4/72 42/5/49
f 4/1/73 53/4/72 40/4/48
f 40/4/48 64/1/73 4/1/73
f 64/1/4 65/36/74 4/1/4
f 64/1/4 66/1/4 65/36/74
f 67/4/58 65/36/58 66/1/58
f 67/4/75 66/1/76 68/1/77
f 69/4/7 67/4/75 68/1/77
f 70/8/58 69/4/58 68/1/58
f 70/8/58 68/1/58 71/9/58
f 70/8/13 71/9/78 72/8/11
f 73/7/79 70/8/13 72/8/11
f 73/7/79 72/8/11 37/7/45
f 74/7/80 70/8/13 73/7/79
f 75/6/81 74/7/80 73/7/79
f 73/7/79 76/6/81 75/6/81
f 75/6/81 76/6/81 77/11/82
f 75/6/81 77/11/82 78/11/83
f 69/4/58 75/6/58 78/11/58
f 69/4/58 78/11/58 79/5/58
f 79/5/58 78/11/58 80/27/58
f 80/27/84 81/5/10 79/5/85
f 79/5/85 81/5/10 67/4/75
f 81/5/58 82/37/58 67/4/58
f 81/5/58 83/38/58 82/37/58
f 83/38/86 84/37/87 82/37/88
f 82/37/88 84/37/87 85/39/89
f 82/37/88 85/39/89 86/40/90
f 86/40/90 87/41/91 82/37/88
f 82/37/88 87/41/91 88/42/92
f 82/37/88 88/42/92 89/43/93
f 89/43/93 90/44/94 82/37/88
f 82/37/88 90/44/94 91/45/95
f 82/37/88 91/45/95 92/46/96
f 92/46/96 93/47/97 82/37/88
f 82/37/88 93/47/97 94/48/98
f 82/37/88 94/48/98 95/49/99
f 96/50/100 82/37/88 95/49/99
f 97/51/101 96/50/102 95/49/103
f 97/51/101 95/49/103 98/52/104
f 99/53/105 97/51/106 98/52/107
f 99/53/105 98/52/107 100/54/108
f 100/54/108 101/55/109 99/53/105
f 99/53/105 101/55/109 102/56/110
f 99/53/105 102/56/110 103/57/111
f 103/57/111 104/58/112 99/53/105
f 99/53/105 104/58/112 105/59/113
f 99/53/105 105/59/113 106/60/114
f 107/61/115 99/53/105 106/60/114
f 87/41/116 107/61/117 106/60/118
f 108/62/119 107/61/117 87/41/116
f 107/61/115 108/62/120 99/53/105
f 108/62/120 109/53/121 99/53/105
f 99/53/105 109/53/121 110/63/122
f 99/53/105 110/63/122 111/63/123
f 112/64/58 99/53/58 111/63/58
f 112/64/58 111/63/58 113/65/58
f 114/64/124 112/64/125 113/65/126
f 114/64/124 113/65/126 115/65/127
f 114/64/58 115/65/58 116/66/58
f 116/66/58 117/67/58 114/64/58
f 116/66/58 118/68/58 117/67/58
f 118/68/128 119/67/129 117/67/130
f 117/67/130 119/67/129 112/64/125
f 118/68/128 120/68/131 119/67/129
f 120/68/58 121/69/58 119/67/58
f 119/67/58 121/69/58 99/53/58
f 99/53/105 121/69/132 122/70/133
f 121/69/134 65/36/74 122/70/135
f 122/70/135 65/36/74 96/50/102
f 121/69/134 123/71/136 65/36/74
f 65/36/74 123/71/136 5/3/5
f 5/3/5 123/71/136 124/72/137
f 125/73/138 5/3/139 124/72/140
f 124/72/140 126/74/141 125/73/138
f 125/73/138 126/74/141 127/75/142
f 125/73/138 127/75/142 128/76/143
f 128/76/143 129/77/144 125/73/138
f 125/73/138 129/77/144 130/78/145
f 125/73/138 130/78/145 131/79/146
f 131/79/146 132/80/147 125/73/138
f 125/73/138 132/80/147 133/81/148
f 125/73/138 133/81/148 134/82/149
f 135/83/150 125/73/138 134/82/149
f 134/82/151 136/84/152 135/83/153
f 135/83/153 136/84/152 137/85/154
f 137/85/154 136/84/152 138/86/155
f 137/85/154 138/86/155 139/87/156
f 139/87/156 140/73/6 137/85/154
f 137/85/157 140/73/158 125/73/138
f 125/73/138 140/73/158 141/88/159
f 125/73/138 141/88/159 142/88/160
f 142/88/6 143/27/6 125/73/6
f 125/73/6 143/27/6 8/5/6
f 142/88/6 144/28/6 143/27/6
f 145/27/161 143/27/84 144/28/162
f 145/27/161 144/28/162 146/28/163
f 147/32/6 145/27/6 146/28/6
f 146/28/6 148/34/6 147/32/6
f 147/32/6 148/34/6 149/35/6
f 147/32/6 149/35/6 150/33/6
f 150/33/6 151/29/6 147/32/6
f 147/32/6 151/29/6 152/30/6
f 147/32/6 152/30/6 153/31/6
f 153/31/164 154/32/165 147/32/166
f 147/32/166 154/32/165 19/11/83
f 147/32/166 19/11/83 155/11/82
f 155/11/6 9/5/6 147/32/6
f 153/31/164 156/31/167 154/32/165
f 157/89/6 154/32/6 156/31/6
f 157/89/6 156/31/6 158/90/6
f 158/90/168 159/89/169 157/89/170
f 157/89/170 159/89/169 160/91/171
f 157/89/170 160/91/171 20/12/19
f 20/12/19 160/91/171 161/92/172
f 20/12/19 161/92/172 162/12/173
f 20/12/19 162/12/173 163/93/174
f 163/93/174 164/94/175 20/12/19
f 20/12/19 164/94/175 165/95/176
f 20/12/19 165/95/176 166/96/177
f 166/96/177 167/97/178 20/12/19
f 168/98/179 167/97/180 166/96/181
f 168/98/179 166/96/181 169/99/182
f 170/100/183 168/98/184 169/99/185
f 170/100/183 169/99/185 171/101/186
f 171/101/186 172/102/187 170/100/183
f 172/102/187 173/103/188 170/100/189
f 170/100/189 173/103/188 174/104/190
f 170/100/189 174/104/190 26/18/29
f 175/105/191 174/104/190 173/103/188
f 176/106/192 175/105/191 173/103/188
f 173/103/188 177/107/193 176/106/192
f 176/106/192 177/107/193 178/108/194
f 176/106/192 178/108/194 179/109/195
f 180/110/196 176/106/192 179/109/195
f 181/111/197 180/110/196 179/109/195
f 181/111/197 179/109/195 182/112/198
f 183/113/199 181/111/197 182/112/198
f 183/113/199 182/112/198 184/114/200
f 185/115/201 183/113/199 184/114/200
f 186/116/202 185/115/201 184/114/200
f 184/114/200 187/117/203 186/116/202
f 186/116/202 187/117/203 188/118/204
f 188/118/204 189/119/205 186/116/202
f 189/119/205 188/118/204 190/120/206
f 190/120/206 191/121/207 189/119/205
f 189/119/205 191/121/207 192/122/208
f 189/119/205 192/122/208 185/115/201
f 191/121/207 193/123/209 192/122/208
f 192/122/208 193/123/209 181/111/197
f 191/121/207 194/124/210 193/123/209
f 194/124/210 195/125/211 193/123/209
f 193/123/209 195/125/211 180/110/196
f 195/125/211 196/126/212 180/110/196
f 195/125/211 197/127/213 196/126/212
f 197/127/213 198/128/214 196/126/212
f 196/126/212 198/128/214 175/105/191
f 198/128/214 199/129/215 175/105/191
f 199/129/215 27/19/30 175/105/191
f 200/130/216 199/129/215 198/128/214
f 200/130/216 198/128/214 201/131/217
f 202/130/218 200/130/216 201/131/217
f 202/130/218 201/131/217 203/131/219
f 204/127/220 202/130/218 203/131/219
f 205/132/221 204/127/220 203/131/219
f 205/132/221 203/131/219 206/133/222
f 207/134/223 205/132/221 206/133/222
f 207/134/223 206/133/222 208/135/224
f 209/136/225 207/134/223 208/135/224
f 209/136/225 208/135/224 210/137/226
f 211/138/227 209/136/225 210/137/226
f 211/138/227 210/137/226 212/139/228
f 213/140/229 211/138/227 212/139/228
f 213/140/229 212/139/228 214/141/230
f 215/142/231 213/140/229 214/141/230
f 215/142/231 214/141/230 216/143/232
f 217/144/233 215/142/231 216/143/232
f 217/144/233 216/143/232 218/145/234
f 219/146/235 217/144/233 218/145/234
f 219/146/235 218/145/234 220/147/236
f 220/147/236 221/148/237 219/146/235
f 219/146/235 221/148/237 222/149/238
f 219/146/235 222/149/238 223/150/239
f 223/150/239 224/151/240 219/146/235
f 223/150/239 225/152/241 224/151/240
f 225/152/241 215/142/231 224/151/240
f 225/152/241 226/153/242 215/142/231
f 227/154/243 226/153/242 225/152/241
f 228/155/244 227/154/243 225/152/241
f 229/156/245 227/154/243 228/155/244
f 230/157/246 229/156/245 228/155/244
f 230/157/246 228/155/244 231/158/247
f 231/158/248 232/159/249 230/157/250
f 230/157/250 232/159/249 233/160/251
f 230/157/250 233/160/251 234/161/252
f 234/161/252 233/160/251 235/162/253
f 235/162/254 236/163/255 234/161/256
f 234/161/256 236/163/255 229/156/245
f 236/163/255 237/164/257 229/156/245
f 236/163/255 238/165/258 237/164/257
f 238/165/258 239/166/259 237/164/257
f 237/164/257 239/166/259 226/153/242
f 239/166/259 240/167/260 226/153/242
f 226/153/242 240/167/260 213/140/229
f 239/166/259 241/168/261 240/167/260
f 241/168/261 242/169/262 240/167/260
f 240/167/260 242/169/262 211/138/227
f 241/168/261 243/170/263 242/169/262
f 243/170/263 244/171/264 242/169/262
f 242/169/262 244/171/264 209/136/225
f 243/170/263 245/172/265 244/171/264
f 245/172/265 246/173/266 244/171/264
f 244/171/264 246/173/266 207/134/223
f 245/172/265 247/120/267 246/173/266
f 247/120/267 248/124/268 246/173/266
f 246/173/266 248/124/268 205/132/221
f 247/120/267 249/121/269 248/124/268
f 249/121/269 250/125/270 248/124/268
f 248/124/268 250/125/270 204/127/220
f 250/125/270 251/128/271 204/127/220
f 250/125/270 252/126/272 251/128/271
f 252/126/272 253/129/273 251/128/271
f 251/128/271 253/129/273 254/174/274
f 251/128/271 254/174/274 202/130/218
f 253/129/273 255/23/275 254/174/274
f 255/23/275 256/174/276 254/174/274
f 254/174/274 256/174/276 200/130/216
f 255/23/275 31/23/35 256/174/276
f 253/129/273 257/20/277 255/23/275
f 258/175/278 255/23/275 257/20/277
f 258/175/278 257/20/277 259/176/279
f 260/16/280 258/175/281 259/176/282
f 260/16/280 259/176/282 261/98/283
f 261/98/284 262/177/285 260/16/286
f 260/16/286 262/177/285 263/178/287
f 260/16/286 263/178/287 264/15/288
f 264/15/288 263/178/287 265/179/289
f 264/15/288 265/179/289 36/26/44
f 36/26/290 265/179/291 266/180/292
f 267/32/58 36/26/58 266/180/58
f 267/32/58 266/180/58 268/31/58
f 269/32/165 267/32/166 268/31/164
f 269/32/165 268/31/164 270/31/167
f 80/27/58 269/32/58 270/31/58
f 270/31/58 271/30/58 80/27/58
f 80/27/58 271/30/58 272/29/58
f 80/27/58 272/29/58 273/28/58
f 273/28/162 274/27/161 80/27/84
f 273/28/162 275/28/163 274/27/161
f 275/28/58 276/181/58 274/27/58
f 274/27/58 276/181/58 83/38/58
f 276/181/293 277/38/294 83/38/86
f 276/181/293 278/181/295 277/38/294
f 278/181/58 279/182/296 277/38/58
f 277/38/58 279/182/296 84/37/58
f 84/37/58 279/182/296 108/62/119
f 279/182/296 280/114/297 108/62/119
f 108/62/119 280/114/297 281/183/298
f 108/62/119 281/183/298 282/184/299
f 282/184/299 283/185/300 108/62/119
f 108/62/119 283/185/300 284/186/301
f 108/62/119 284/186/301 285/187/302
f 286/188/303 108/62/119 285/187/302
f 285/187/302 287/189/304 286/188/303
f 286/188/303 287/189/304 288/190/305
f 289/191/306 286/188/303 288/190/305
f 289/191/306 288/190/305 290/192/307
f 290/192/307 291/193/308 289/191/306
f 291/193/308 292/194/58 289/191/306
f 289/191/306 292/194/58 293/195/58
f 294/195/309 293/195/310 292/194/311
f 294/195/309 292/194/311 295/194/312
f 296/196/58 294/195/58 295/194/58
f 296/196/58 295/194/58 297/197/58
f 298/196/313 296/196/314 297/197/315
f 298/196/313 297/197/315 299/197/316
f 298/196/58 299/197/58 300/198/58
f 298/196/58 300/198/58 116/66/58
f 116/66/58 300/198/58 301/199/58
f 116/66/58 301/199/58 302/200/58
f 302/200/58 303/201/58 116/66/58
f 116/66/58 303/201/58 304/202/58
f 116/66/58 304/202/58 305/203/58
f 305/203/58 306/204/58 116/66/58
f 116/66/58 306/204/58 307/205/58
f 116/66/58 307/205/58 308/206/58
f 307/205/317 309/206/318 308/206/319
f 309/206/318 310/68/320 308/206/319
f 308/206/319 310/68/320 120/68/131
f 311/66/6 310/68/6 309/206/6
f 311/66/6 309/206/6 312/205/6
f 313/204/6 311/66/6 312/205/6
f 306/204/321 313/204/322 312/205/323
f 314/203/6 311/66/6 313/204/6
f 305/203/324 314/203/325 313/204/322
f 314/203/6 315/202/6 311/66/6
f 311/66/6 315/202/6 316/201/6
f 311/66/6 316/201/6 317/200/6
f 317/200/6 318/199/6 311/66/6
f 311/66/6 318/199/6 319/198/6
f 311/66/6 319/198/6 320/196/6
f 320/196/326 321/66/327 311/66/328
f 311/66/328 321/66/327 322/207/329
f 311/66/328 322/207/329 323/207/330
f 323/207/6 324/208/6 311/66/6
f 311/66/6 324/208/6 325/65/6
f 311/66/6 325/65/6 326/64/6
f 311/66/6 326/64/6 327/67/6
f 326/64/331 328/67/332 327/67/333
f 327/67/333 328/67/332 329/68/334
f 327/67/333 329/68/334 310/68/334
f 329/68/4 123/71/136 310/68/4
f 329/68/4 330/68/4 123/71/136
f 330/68/6 331/209/6 123/71/6
f 332/210/335 123/71/336 331/209/337
f 332/210/335 331/209/337 333/211/338
f 126/74/339 332/210/340 333/211/341
f 331/209/337 334/212/342 333/211/338
f 333/211/341 334/212/343 128/76/344
f 128/76/344 334/212/343 335/213/345
f 331/209/337 335/213/346 334/212/342
f 336/214/347 335/213/346 331/209/337
f 331/209/337 337/215/348 336/214/347
f 130/78/349 336/214/350 337/215/351
f 331/209/337 338/216/352 337/215/348
f 337/215/351 338/216/353 132/80/354
f 132/80/354 338/216/353 339/217/355
f 339/217/356 338/216/352 331/209/337
f 331/209/337 340/218/357 339/217/356
f 339/217/355 340/218/358 134/82/151
f 331/209/337 136/84/359 340/218/357
f 335/213/345 336/214/350 130/78/349
f 341/67/6 331/209/6 330/68/6
f 330/68/360 342/67/129 341/67/130
f 341/67/130 342/67/129 343/64/125
f 341/67/130 343/64/125 344/64/124
f 344/64/6 345/219/6 341/67/6
f 344/64/6 346/220/6 345/219/6
f 346/220/361 347/219/362 345/219/363
f 345/219/363 347/219/362 348/209/364
f 345/219/363 348/209/364 331/209/337
f 331/209/337 348/209/364 139/87/365
f 348/209/6 349/188/366 139/87/156
f 139/87/156 349/188/366 350/187/367
f 139/87/156 350/187/367 351/186/368
f 351/186/368 352/185/369 139/87/156
f 139/87/156 352/185/369 353/184/370
f 139/87/156 353/184/370 354/183/371
f 354/183/371 355/182/372 139/87/156
f 355/182/372 141/88/6 139/87/156
f 355/182/372 356/221/6 141/88/6
f 357/222/6 356/221/6 355/182/372
f 355/182/372 358/223/6 357/222/6
f 359/222/373 357/222/374 358/223/375
f 359/222/373 358/223/375 360/223/376
f 360/223/6 361/35/6 359/222/6
f 359/222/6 361/35/6 362/34/6
f 359/222/6 362/34/6 363/221/6
f 363/221/6 362/34/6 144/28/6
f 148/34/377 362/34/378 361/35/379
f 360/223/6 364/33/6 361/35/6
f 149/35/380 361/35/379 364/33/381
f 365/224/6 364/33/6 360/223/6
f 360/223/376 366/224/382 365/224/383
f 365/224/383 366/224/382 367/225/384
f 365/224/383 367/225/384 368/225/385
f 368/225/6 369/29/6 365/224/6
f 368/225/6 370/30/6 369/29/6
f 151/29/386 369/29/387 370/30/388
f 158/90/6 370/30/6 368/225/6
f 368/225/385 371/90/389 158/90/168
f 368/225/385 367/225/384 371/90/389
f 372/226/390 371/90/6 367/225/6
f 372/226/390 367/225/6 355/182/372
f 372/226/390 355/182/372 373/227/391
f 372/226/390 373/227/391 374/228/392
f 374/228/392 160/91/393 372/226/390
f 373/227/391 375/229/394 374/228/392
f 374/228/392 375/229/394 376/230/395
f 374/228/392 376/230/395 377/231/396
f 377/231/396 162/12/397 374/228/392
f 376/230/395 378/232/398 377/231/396
f 377/231/396 378/232/398 379/233/399
f 377/231/396 379/233/399 380/234/400
f 380/234/401 163/93/402 377/231/396
f 379/233/399 381/235/403 380/234/400
f 380/234/400 381/235/403 172/102/187
f 381/235/403 177/107/193 172/102/187
f 379/233/399 178/108/194 381/235/403
f 379/233/399 382/236/404 178/108/194
f 378/232/398 382/236/404 379/233/399
f 378/232/398 383/237/405 382/236/404
f 179/109/195 382/236/404 383/237/405
f 376/230/395 383/237/405 378/232/398
f 376/230/395 384/238/406 383/237/405
f 182/112/198 383/237/405 384/238/406
f 384/238/406 385/239/407 182/112/198
f 385/239/407 384/238/406 376/230/395
f 376/230/395 375/229/394 385/239/407
f 385/239/407 375/229/394 373/227/391
f 385/239/407 373/227/391 355/182/372
f 355/182/372 184/114/200 385/239/407
f 159/89/6 371/90/6 372/226/390
f 367/225/6 366/224/6 355/182/372
f 365/224/6 369/29/6 364/33/6
f 150/33/408 364/33/381 369/29/387
f 360/223/376 358/223/375 366/224/382
f 363/221/409 357/222/374 359/222/373
f 355/182/372 366/224/6 358/223/6
f 363/221/409 356/221/410 357/222/374
f 142/88/160 356/221/410 363/221/409
f 184/114/200 355/182/372 354/183/371
f 184/114/200 354/183/371 386/240/411
f 387/241/412 386/240/411 354/183/371
f 388/242/413 386/240/411 387/241/412
f 389/243/414 388/242/413 387/241/412
f 389/243/414 387/241/412 390/244/415
f 391/245/416 389/243/414 390/244/415
f 391/245/416 390/244/415 392/246/417
f 393/247/418 391/245/416 392/246/417
f 393/247/418 392/246/417 394/248/419
f 395/249/420 393/247/418 394/248/419
f 395/249/420 394/248/419 396/250/421
f 397/192/422 395/249/420 396/250/421
f 396/250/421 398/191/423 397/192/422
f 398/191/423 399/251/424 397/192/422
f 397/192/422 399/251/424 400/252/425
f 401/253/426 397/192/422 400/252/425
f 401/253/427 400/252/428 402/252/429
f 402/252/429 403/254/430 401/253/427
f 402/252/429 404/255/431 403/254/430
f 404/255/432 405/256/433 403/254/434
f 403/254/434 405/256/433 397/192/422
f 405/256/433 406/257/435 397/192/422
f 405/256/433 407/258/436 406/257/435
f 407/258/436 393/247/418 406/257/435
f 407/258/436 408/259/437 393/247/418
f 409/260/438 408/259/437 407/258/436
f 409/260/438 410/261/439 408/259/437
f 410/261/439 391/245/416 408/259/437
f 410/261/439 411/166/440 391/245/416
f 412/165/441 411/166/440 410/261/439
f 413/262/442 412/165/441 410/261/439
f 414/163/443 412/165/441 413/262/442
f 415/162/444 414/163/443 413/262/442
f 415/162/444 413/262/442 409/260/438
f 415/162/444 409/260/438 405/256/433
f 416/161/445 414/163/443 415/162/444
f 404/255/432 416/161/446 415/162/447
f 417/263/448 416/161/446 404/255/432
f 417/263/448 418/157/449 416/161/446
f 418/157/450 419/156/451 416/161/445
f 418/157/450 420/155/452 419/156/451
f 420/155/452 421/152/453 419/156/451
f 419/156/451 421/152/453 422/154/454
f 419/156/451 422/154/454 414/163/443
f 422/154/454 423/164/455 414/163/443
f 422/154/454 424/153/456 423/164/455
f 423/164/455 424/153/456 411/166/440
f 424/153/456 425/168/457 411/166/440
f 411/166/440 425/168/457 389/243/414
f 424/153/456 426/167/458 425/168/457
f 426/167/458 427/170/459 425/168/457
f 425/168/457 427/170/459 388/242/413
f 427/170/459 428/264/460 388/242/413
f 427/170/459 429/172/461 428/264/460
f 188/118/204 428/264/460 429/172/461
f 430/169/462 429/172/461 427/170/459
f 430/169/462 431/171/463 429/172/461
f 190/120/206 429/172/461 431/171/463
f 190/120/206 431/171/463 432/173/464
f 432/173/464 431/171/463 433/136/465
f 432/173/464 433/136/465 434/134/466
f 194/124/210 432/173/464 434/134/466
f 434/134/466 435/132/467 194/124/210
f 435/132/467 434/134/466 436/135/468
f 436/135/468 437/133/469 435/132/467
f 435/132/467 437/133/469 197/127/213
f 437/133/469 201/131/217 197/127/213
f 206/133/222 437/133/469 436/135/468
f 434/134/466 438/137/470 436/135/468
f 436/135/468 438/137/470 208/135/224
f 434/134/466 433/136/465 438/137/470
f 439/139/471 438/137/470 433/136/465
f 439/139/471 433/136/465 440/138/472
f 441/141/473 439/139/471 440/138/472
f 441/141/473 440/138/472 442/140/474
f 443/143/475 441/141/473 442/140/474
f 443/143/475 442/140/474 444/142/476
f 445/144/477 443/143/475 444/142/476
f 445/144/477 444/142/476 446/151/478
f 446/151/478 447/146/479 445/144/477
f 445/144/477 447/146/479 448/147/480
f 445/144/477 448/147/480 449/145/481
f 448/147/480 220/147/236 449/145/481
f 450/149/482 448/147/480 447/146/479
f 450/149/482 447/146/479 451/265/483
f 451/265/484 452/266/485 450/149/486
f 450/149/486 452/266/485 453/267/487
f 450/149/486 453/267/487 454/268/488
f 454/268/488 455/148/489 450/149/486
f 456/269/490 455/148/489 454/268/488
f 454/268/488 457/270/491 456/269/490
f 456/269/490 457/270/491 458/270/492
f 456/269/490 458/270/492 459/270/493
f 459/270/58 460/271/58 456/269/58
f 456/269/58 460/271/58 297/197/58
f 297/197/58 461/272/58 456/269/58
f 462/273/494 456/269/495 461/272/496
f 461/272/496 463/274/497 462/273/494
f 222/149/498 462/273/499 463/274/500
f 222/149/498 463/274/500 464/265/501
f 464/265/501 463/274/500 465/275/502
f 464/265/501 465/275/502 231/158/248
f 223/150/239 464/265/503 231/158/247
f 461/272/496 465/275/504 463/274/497
f 232/159/505 465/275/504 461/272/496
f 456/269/490 462/273/499 222/149/498
f 466/271/506 460/271/507 459/270/493
f 466/271/506 459/270/493 467/270/508
f 466/271/58 467/270/58 468/276/58
f 469/277/58 466/271/58 468/276/58
f 468/276/509 470/277/510 469/277/511
f 469/277/511 470/277/510 319/198/512
f 469/277/511 319/198/512 300/198/513
f 319/198/6 470/277/6 471/197/6
f 471/197/6 470/277/6 472/276/6
f 471/197/6 472/276/6 473/271/6
f 473/271/514 474/197/515 471/197/516
f 471/197/516 474/197/515 475/196/517
f 471/197/516 475/196/517 320/196/326
f 475/196/58 474/197/58 476/198/58
f 475/196/58 476/198/58 321/66/58
f 321/66/58 476/198/58 477/199/58
f 321/66/58 477/199/58 478/200/58
f 478/200/58 479/201/58 321/66/58
f 321/66/58 479/201/58 480/202/58
f 321/66/58 480/202/58 481/203/58
f 481/203/58 482/204/58 321/66/58
f 321/66/58 482/204/58 483/205/58
f 321/66/58 483/205/58 484/206/58
f 484/206/58 329/68/58 321/66/58
f 483/205/317 485/206/518 484/206/519
f 484/206/519 485/206/518 330/68/360
f 485/206/518 486/68/520 330/68/360
f 487/66/6 486/68/6 485/206/6
f 487/66/6 485/206/6 488/205/6
f 489/204/6 487/66/6 488/205/6
f 482/204/321 489/204/322 488/205/323
f 490/203/6 487/66/6 489/204/6
f 481/203/324 490/203/325 489/204/322
f 490/203/6 491/202/6 487/66/6
f 487/66/6 491/202/6 492/201/6
f 487/66/6 492/201/6 493/200/6
f 493/200/6 494/199/6 487/66/6
f 487/66/6 494/199/6 495/198/6
f 487/66/6 495/198/6 496/196/6
f 497/66/521 487/66/522 496/196/523
f 497/66/521 496/196/523 498/196/313
f 498/196/6 402/252/6 497/66/6
f 497/66/6 402/252/6 499/278/6
f 497/66/6 499/278/6 500/207/6
f 500/207/6 499/278/6 501/279/6
f 500/207/6 501/279/6 502/280/6
f 502/280/524 503/207/525 500/207/526
f 500/207/526 503/207/525 487/66/522
f 503/207/6 504/208/6 487/66/6
f 487/66/6 504/208/6 505/65/6
f 487/66/6 505/65/6 343/64/6
f 506/65/527 505/65/126 504/208/528
f 506/65/527 504/208/528 507/208/529
f 507/208/6 508/281/6 506/65/6
f 506/65/6 508/281/6 346/220/6
f 508/281/530 509/220/531 346/220/361
f 508/281/530 510/281/532 509/220/531
f 349/188/366 509/220/6 510/281/6
f 510/281/6 511/282/6 349/188/366
f 349/188/366 511/282/6 512/283/6
f 349/188/366 512/283/6 513/284/6
f 398/191/423 349/188/366 513/284/6
f 513/284/6 514/279/6 398/191/423
f 398/191/423 514/279/6 515/278/6
f 499/278/533 515/278/534 514/279/535
f 399/251/536 515/278/534 499/278/533
f 501/279/537 514/279/535 513/284/538
f 501/279/537 513/284/538 516/284/539
f 516/284/539 513/284/538 512/283/540
f 516/284/539 512/283/540 517/283/541
f 502/280/6 516/284/6 517/283/6
f 502/280/6 517/283/6 518/285/6
f 518/285/542 519/280/543 502/280/524
f 518/285/542 520/285/544 519/280/543
f 519/280/6 520/285/6 503/207/6
f 507/208/529 520/285/544 518/285/542
f 518/285/6 521/282/6 507/208/6
f 518/285/6 517/283/6 521/282/6
f 517/283/541 511/282/545 521/282/546
f 517/283/541 512/283/540 511/282/545
f 521/282/546 511/282/545 510/281/532
f 349/188/366 347/219/6 509/220/6
f 521/282/546 510/281/532 508/281/530
f 507/208/6 521/282/6 508/281/6
f 507/208/529 504/208/528 520/285/544
f 344/64/124 505/65/126 506/65/527
f 503/207/6 520/285/6 504/208/6
f 502/280/524 519/280/543 503/207/525
f 502/280/6 501/279/6 516/284/6
f 499/278/533 514/279/535 501/279/537
f 402/252/429 399/251/536 499/278/533
f 498/196/6 454/268/6 402/252/6
f 522/197/6 454/268/6 498/196/6
f 498/196/313 523/197/315 522/197/316
f 522/197/316 523/197/315 524/271/507
f 522/197/316 524/271/507 525/271/547
f 525/271/547 524/271/507 526/270/548
f 525/271/547 526/270/548 527/270/549
f 525/271/6 527/270/6 454/268/6
f 527/270/549 526/270/548 528/276/550
f 527/270/549 528/276/550 457/270/491
f 457/270/491 528/276/550 529/276/551
f 530/271/58 457/270/58 529/276/58
f 531/277/58 530/271/58 529/276/58
f 529/276/551 532/277/510 531/277/511
f 531/277/511 532/277/510 495/198/512
f 531/277/511 495/198/512 476/198/513
f 495/198/6 532/277/6 523/197/6
f 523/197/6 532/277/6 528/276/6
f 476/198/58 530/271/58 531/277/58
f 529/276/551 528/276/550 532/277/510
f 524/271/6 528/276/6 526/270/6
f 523/197/6 528/276/6 524/271/6
f 525/271/6 454/268/6 522/197/6
f 498/196/313 496/196/523 523/197/315
f 500/207/526 487/66/522 497/66/521
f 496/196/6 495/198/6 523/197/6
f 476/198/513 495/198/512 494/199/552
f 477/199/553 494/199/552 493/200/554
f 478/200/555 493/200/554 492/201/556
f 479/201/557 492/201/556 491/202/558
f 480/202/559 491/202/558 490/203/325
f 342/67/6 486/68/6 487/66/6
f 483/205/317 488/205/323 485/206/518
f 482/204/321 488/205/323 483/205/317
f 481/203/324 489/204/322 482/204/321
f 480/202/559 490/203/325 481/203/324
f 479/201/557 491/202/558 480/202/559
f 478/200/555 492/201/556 479/201/557
f 477/199/553 493/200/554 478/200/555
f 476/198/513 494/199/552 477/199/553
f 476/198/58 474/197/58 530/271/58
f 473/271/514 530/271/560 474/197/515
f 458/270/561 530/271/560 473/271/514
f 473/271/6 472/276/6 458/270/6
f 468/276/509 472/276/562 470/277/510
f 459/270/493 472/276/562 468/276/509
f 300/198/58 466/271/58 469/277/58
f 467/270/508 459/270/493 468/276/509
f 299/197/316 460/271/507 466/271/506
f 459/270/493 458/270/492 472/276/562
f 458/270/561 457/270/561 530/271/560
f 454/268/488 527/270/549 457/270/491
f 221/148/563 455/148/489 456/269/490
f 455/148/564 221/148/237 448/147/480
f 454/268/565 453/267/566 402/252/429
f 402/252/429 453/267/566 452/266/567
f 452/266/567 533/286/568 402/252/429
f 402/252/429 533/286/568 534/287/569
f 402/252/429 534/287/569 417/263/570
f 417/263/448 534/287/571 535/158/572
f 535/158/572 534/287/571 533/286/573
f 535/158/572 533/286/573 451/265/484
f 451/265/483 536/150/574 535/158/575
f 535/158/575 536/150/574 420/155/452
f 451/265/484 533/286/573 452/266/485
f 451/265/483 447/146/479 536/150/574
f 455/148/564 448/147/480 450/149/482
f 446/151/478 536/150/574 447/146/479
f 421/152/453 536/150/574 446/151/478
f 446/151/478 444/142/476 421/152/453
f 421/152/453 444/142/476 424/153/456
f 449/145/481 443/143/475 445/144/477
f 216/143/232 443/143/475 449/145/481
f 444/142/476 442/140/474 426/167/458
f 442/140/474 430/169/462 426/167/458
f 214/141/230 441/141/473 443/143/475
f 442/140/474 440/138/472 430/169/462
f 212/139/228 439/139/471 441/141/473
f 210/137/226 438/137/470 439/139/471
f 440/138/472 433/136/465 431/171/463
f 440/138/472 431/171/463 430/169/462
f 426/167/458 430/169/462 427/170/459
f 444/142/476 426/167/458 424/153/456
f 421/152/453 424/153/456 422/154/454
f 421/152/453 420/155/452 536/150/574
f 535/158/575 420/155/452 418/157/450
f 535/158/572 418/157/449 417/263/448
f 416/161/445 419/156/451 414/163/443
f 414/163/443 423/164/455 412/165/441
f 423/164/455 411/166/440 412/165/441
f 413/262/442 410/261/439 409/260/438
f 405/256/433 409/260/438 407/258/436
f 404/255/432 415/162/447 405/256/433
f 417/263/570 404/255/431 402/252/429
f 403/254/434 397/192/422 401/253/426
f 402/252/429 400/252/428 399/251/536
f 398/191/423 515/278/6 399/251/424
f 349/188/366 398/191/423 396/250/421
f 397/192/422 406/257/435 395/249/420
f 394/248/419 537/189/576 396/250/421
f 396/250/421 537/189/576 350/187/367
f 406/257/435 393/247/418 395/249/420
f 394/248/419 392/246/417 537/189/576
f 537/189/576 392/246/417 351/186/368
f 408/259/437 391/245/416 393/247/418
f 392/246/417 390/244/415 352/185/369
f 411/166/440 389/243/414 391/245/416
f 390/244/415 387/241/412 353/184/370
f 425/168/457 388/242/413 389/243/414
f 388/242/413 428/264/460 386/240/411
f 187/117/203 386/240/411 428/264/460
f 387/241/412 354/183/371 353/184/370
f 390/244/415 353/184/370 352/185/369
f 392/246/417 352/185/369 351/186/368
f 537/189/576 351/186/368 350/187/367
f 396/250/421 350/187/367 349/188/366
f 348/209/6 347/219/6 349/188/366
f 346/220/361 509/220/531 347/219/362
f 506/65/6 346/220/6 344/64/6
f 344/64/124 343/64/125 505/65/126
f 487/66/6 343/64/6 342/67/6
f 330/68/360 486/68/520 342/67/129
f 341/67/6 345/219/6 331/209/6
f 484/206/519 330/68/360 329/68/320
f 321/66/58 329/68/58 328/67/58
f 321/66/58 328/67/58 538/64/58
f 538/64/58 539/65/58 321/66/58
f 321/66/58 539/65/58 540/208/58
f 324/208/577 540/208/578 539/65/579
f 541/285/580 540/208/578 324/208/577
f 541/285/580 542/285/581 540/208/578
f 322/207/58 540/208/58 542/285/58
f 322/207/58 542/285/58 543/280/58
f 544/280/582 543/280/583 542/285/581
f 323/207/330 543/280/583 544/280/582
f 544/280/6 541/285/6 323/207/6
f 544/280/582 542/285/581 541/285/580
f 325/65/584 539/65/579 538/64/585
f 326/64/331 538/64/585 328/67/332
f 325/65/584 538/64/585 326/64/331
f 324/208/577 539/65/579 325/65/584
f 323/207/6 541/285/6 324/208/6
f 323/207/330 322/207/329 543/280/583
f 321/66/58 540/208/58 322/207/58
f 320/196/326 475/196/517 321/66/327
f 320/196/6 319/198/6 471/197/6
f 300/198/513 319/198/512 318/199/552
f 301/199/553 318/199/552 317/200/554
f 302/200/555 317/200/554 316/201/556
f 303/201/557 316/201/556 315/202/558
f 304/202/559 315/202/558 314/203/325
f 327/67/6 310/68/6 311/66/6
f 307/205/317 312/205/323 309/206/318
f 306/204/321 312/205/323 307/205/317
f 305/203/324 313/204/322 306/204/321
f 304/202/559 314/203/325 305/203/324
f 303/201/557 315/202/558 304/202/559
f 302/200/555 316/201/556 303/201/557
f 301/199/553 317/200/554 302/200/555
f 300/198/513 318/199/552 301/199/553
f 300/198/58 299/197/58 466/271/58
f 299/197/316 297/197/315 460/271/507
f 116/66/521 296/196/314 298/196/313
f 116/66/521 545/66/522 296/196/314
f 546/207/526 545/66/522 116/66/521
f 116/66/58 547/208/58 546/207/58
f 546/207/58 547/208/58 548/285/58
f 546/207/58 548/285/58 549/280/58
f 549/280/524 550/207/586 546/207/526
f 549/280/524 551/280/543 550/207/586
f 551/280/58 552/288/58 550/207/58
f 550/207/58 552/288/58 553/289/58
f 550/207/58 553/289/58 545/66/58
f 545/66/58 553/289/58 294/195/58
f 552/288/587 554/289/588 553/289/589
f 553/289/589 554/289/588 293/195/310
f 286/188/303 293/195/58 554/289/58
f 286/188/303 554/289/58 555/288/58
f 555/288/58 556/290/58 286/188/303
f 556/290/58 557/291/58 286/188/303
f 286/188/303 557/291/58 558/292/58
f 286/188/303 558/292/58 110/63/58
f 559/292/590 558/292/591 557/291/592
f 559/292/590 557/291/592 560/291/593
f 561/208/58 559/292/58 560/291/58
f 561/208/58 560/291/58 562/285/58
f 547/208/529 561/208/528 562/285/544
f 115/65/127 561/208/528 547/208/529
f 562/285/58 560/291/58 563/290/58
f 562/285/58 563/290/58 551/280/58
f 548/285/542 562/285/544 551/280/543
f 560/291/593 556/290/594 563/290/595
f 113/65/58 559/292/58 561/208/58
f 111/63/123 558/292/591 559/292/590
f 560/291/593 557/291/592 556/290/594
f 563/290/595 556/290/594 555/288/596
f 563/290/595 555/288/596 552/288/587
f 552/288/587 555/288/596 554/289/588
f 551/280/58 563/290/58 552/288/58
f 548/285/542 551/280/543 549/280/524
f 547/208/529 562/285/544 548/285/542
f 546/207/526 550/207/586 545/66/522
f 297/197/58 295/194/58 461/272/58
f 295/194/312 291/193/597 461/272/496
f 461/272/496 291/193/597 564/293/598
f 461/272/496 564/293/598 565/272/599
f 461/272/496 565/272/599 566/294/600
f 566/294/600 567/295/601 461/272/496
f 461/272/496 567/295/601 233/160/602
f 235/162/253 567/295/603 566/294/604
f 235/162/253 566/294/604 568/256/605
f 568/256/605 569/296/606 235/162/254
f 569/296/606 570/297/607 235/162/254
f 569/296/606 571/261/608 570/297/607
f 570/297/607 571/261/608 238/165/258
f 569/296/606 572/259/609 571/261/608
f 572/259/609 573/245/610 571/261/608
f 571/261/608 573/245/610 239/166/259
f 574/247/611 573/245/610 572/259/609
f 575/298/612 574/247/611 572/259/609
f 576/299/613 574/247/611 575/298/612
f 576/299/613 575/298/612 568/256/605
f 290/192/307 576/299/613 568/256/605
f 568/256/605 565/272/614 290/192/307
f 290/192/307 577/300/615 576/299/613
f 577/300/615 578/248/616 576/299/613
f 577/300/615 287/189/304 578/248/616
f 287/189/304 579/246/617 578/248/616
f 578/248/616 579/246/617 574/247/611
f 287/189/304 284/186/301 579/246/617
f 284/186/301 580/244/618 579/246/617
f 579/246/617 580/244/618 581/243/619
f 579/246/617 581/243/619 573/245/610
f 573/245/610 581/243/619 241/168/261
f 580/244/618 582/242/620 581/243/619
f 581/243/619 582/242/620 243/170/263
f 580/244/618 583/241/621 582/242/620
f 583/241/621 584/264/622 582/242/620
f 582/242/620 584/264/622 245/172/265
f 583/241/621 585/240/623 584/264/622
f 585/240/623 586/118/624 584/264/622
f 584/264/622 586/118/624 247/120/267
f 585/240/623 587/117/625 586/118/624
f 587/117/625 588/119/626 586/118/624
f 586/118/624 588/119/626 249/121/269
f 588/119/626 589/123/627 249/121/269
f 588/119/626 590/122/628 589/123/627
f 590/122/628 591/110/629 589/123/627
f 589/123/627 591/110/629 252/126/272
f 591/110/629 592/105/630 252/126/272
f 591/110/629 593/106/631 592/105/630
f 593/106/631 594/104/632 592/105/630
f 592/105/630 594/104/632 257/20/277
f 595/301/633 257/20/277 594/104/632
f 595/301/633 594/104/632 596/302/634
f 597/99/635 595/301/636 596/302/637
f 597/99/635 596/302/637 598/101/638
f 599/303/639 597/99/640 598/101/641
f 599/303/639 598/101/641 600/304/642
f 599/303/643 600/304/644 266/180/292
f 266/180/292 601/305/645 599/303/643
f 599/303/639 601/305/646 261/98/284
f 266/180/292 262/177/647 601/305/645
f 266/180/292 600/304/644 602/306/648
f 266/180/292 602/306/648 603/307/649
f 603/307/649 604/180/650 266/180/292
f 266/180/292 604/180/650 605/308/651
f 266/180/292 605/308/651 606/309/652
f 605/308/651 607/309/653 606/309/652
f 606/309/652 607/309/653 608/310/654
f 606/309/652 608/310/654 609/310/655
f 610/30/58 606/309/58 609/310/58
f 610/30/58 609/310/58 611/29/58
f 271/30/388 610/30/656 611/29/386
f 611/29/58 609/310/58 612/311/58
f 611/29/58 612/311/58 613/33/58
f 272/29/387 611/29/386 613/33/408
f 272/29/387 613/33/408 614/33/381
f 614/33/58 615/34/58 272/29/58
f 616/35/58 615/34/58 614/33/58
f 614/33/381 617/35/380 616/35/379
f 616/35/379 617/35/380 618/34/377
f 617/35/58 619/312/58 618/34/58
f 618/34/58 619/312/58 620/313/58
f 618/34/58 620/313/58 275/28/58
f 615/34/378 618/34/377 275/28/163
f 619/312/657 621/313/658 620/313/659
f 620/313/659 621/313/658 278/181/295
f 619/312/657 622/312/660 621/313/658
f 621/313/58 622/312/58 279/182/296
f 279/182/296 622/312/58 623/314/58
f 279/182/296 623/314/58 624/226/661
f 625/228/662 279/182/296 624/226/661
f 624/226/661 605/308/663 625/228/662
f 625/228/662 626/229/664 279/182/296
f 627/231/665 626/229/664 625/228/662
f 602/306/666 627/231/665 625/228/662
f 627/231/665 628/232/667 626/229/664
f 628/232/667 629/238/668 626/229/664
f 626/229/664 629/238/668 280/114/297
f 280/114/297 629/238/668 630/112/669
f 280/114/297 630/112/669 631/113/670
f 280/114/297 631/113/670 632/115/671
f 280/114/297 632/115/671 633/116/672
f 280/114/297 633/116/672 587/117/625
f 633/116/672 632/115/671 590/122/628
f 632/115/671 634/111/673 590/122/628
f 632/115/671 631/113/670 634/111/673
f 631/113/670 635/109/674 634/111/673
f 634/111/673 635/109/674 593/106/631
f 635/109/674 636/107/675 593/106/631
f 635/109/674 637/236/676 636/107/675
f 638/235/677 636/107/675 637/236/676
f 638/235/677 637/236/676 628/232/667
f 639/234/678 638/235/677 628/232/667
f 640/315/679 638/235/677 639/234/678
f 598/101/638 640/315/679 639/234/678
f 640/315/679 636/107/675 638/235/677
f 640/315/679 594/104/632 636/107/675
f 630/112/669 637/236/676 635/109/674
f 631/113/670 630/112/669 635/109/674
f 630/112/669 629/238/668 637/236/676
f 628/232/667 637/236/676 629/238/668
f 639/234/678 628/232/667 627/231/665
f 600/304/642 639/234/680 627/231/665
f 624/226/661 623/314/58 641/311/58
f 624/226/661 641/311/58 608/310/58
f 612/311/681 641/311/682 623/314/683
f 612/311/681 623/314/683 642/314/684
f 642/314/684 623/314/683 622/312/660
f 642/314/684 622/312/660 619/312/657
f 617/35/58 642/314/58 619/312/58
f 613/33/58 642/314/58 617/35/58
f 616/35/379 618/34/377 615/34/378
f 614/33/381 613/33/408 617/35/380
f 613/33/58 612/311/58 642/314/58
f 609/310/655 641/311/682 612/311/681
f 268/31/58 606/309/58 610/30/58
f 609/310/655 608/310/654 641/311/682
f 607/309/58 624/226/661 608/310/58
f 605/308/663 624/226/661 607/309/58
f 625/228/662 605/308/663 604/180/685
f 625/228/662 604/180/685 603/307/686
f 602/306/666 625/228/662 603/307/686
f 600/304/642 627/231/665 602/306/666
f 598/101/641 639/234/680 600/304/642
f 261/98/284 597/99/640 599/303/639
f 598/101/638 596/302/637 640/315/679
f 261/98/283 595/301/636 597/99/635
f 596/302/634 594/104/632 640/315/679
f 593/106/631 636/107/675 594/104/632
f 634/111/673 593/106/631 591/110/629
f 590/122/628 634/111/673 591/110/629
f 633/116/672 590/122/628 588/119/626
f 587/117/625 633/116/672 588/119/626
f 281/183/298 587/117/625 585/240/623
f 282/184/299 585/240/623 583/241/621
f 283/185/300 583/241/621 580/244/618
f 576/299/613 578/248/616 574/247/611
f 574/247/611 579/246/617 573/245/610
f 575/298/612 572/259/609 569/296/606
f 568/256/605 575/298/612 569/296/606
f 568/256/605 566/294/604 565/272/614
f 565/272/614 564/293/687 290/192/307
f 545/66/58 294/195/58 296/196/58
f 553/289/589 293/195/310 294/195/309
f 295/194/312 292/194/311 291/193/597
f 290/192/307 564/293/687 291/193/308
f 288/190/305 577/300/615 290/192/307
f 289/191/306 293/195/58 286/188/303
f 288/190/305 287/189/304 577/300/615
f 285/187/302 284/186/301 287/189/304
f 284/186/301 283/185/300 580/244/618
f 283/185/300 282/184/299 583/241/621
f 282/184/299 281/183/298 585/240/623
f 281/183/298 280/114/297 587/117/625
f 626/229/664 280/114/297 279/182/296
f 621/313/58 279/182/296 278/181/58
f 620/313/659 278/181/295 276/181/293
f 275/28/58 620/313/58 276/181/58
f 615/34/378 275/28/163 273/28/162
f 273/28/58 272/29/58 615/34/58
f 271/30/388 611/29/386 272/29/387
f 270/31/167 610/30/656 271/30/388
f 270/31/167 268/31/164 610/30/656
f 78/11/83 267/32/166 269/32/165
f 268/31/58 266/180/58 606/309/58
f 77/11/58 36/26/58 267/32/58
f 266/180/292 265/179/291 263/178/688
f 263/178/688 262/177/647 266/180/292
f 261/98/284 601/305/646 262/177/285
f 261/98/283 259/176/282 595/301/636
f 264/15/689 258/175/281 260/16/280
f 264/15/689 34/24/41 258/175/281
f 259/176/279 257/20/277 595/301/633
f 34/24/690 255/23/275 258/175/278
f 592/105/630 257/20/277 253/129/273
f 252/126/272 592/105/630 253/129/273
f 589/123/627 252/126/272 250/125/270
f 249/121/269 589/123/627 250/125/270
f 586/118/624 249/121/269 247/120/267
f 584/264/622 247/120/267 245/172/265
f 582/242/620 245/172/265 243/170/263
f 581/243/619 243/170/263 241/168/261
f 573/245/610 241/168/261 239/166/259
f 571/261/608 239/166/259 238/165/258
f 570/297/607 238/165/258 236/163/255
f 235/162/254 570/297/607 236/163/255
f 233/160/251 567/295/603 235/162/253
f 461/272/496 233/160/602 232/159/505
f 231/158/248 465/275/502 232/159/249
f 231/158/247 228/155/244 223/150/239
f 234/161/256 229/156/245 230/157/246
f 229/156/245 237/164/257 227/154/243
f 237/164/257 226/153/242 227/154/243
f 228/155/244 225/152/241 223/150/239
f 223/150/239 222/149/238 464/265/503
f 222/149/498 221/148/563 456/269/490
f 448/147/480 221/148/237 220/147/236
f 449/145/481 220/147/236 218/145/234
f 224/151/240 217/144/233 219/146/235
f 216/143/232 449/145/481 218/145/234
f 224/151/240 215/142/231 217/144/233
f 214/141/230 443/143/475 216/143/232
f 226/153/242 213/140/229 215/142/231
f 212/139/228 441/141/473 214/141/230
f 240/167/260 211/138/227 213/140/229
f 210/137/226 439/139/471 212/139/228
f 242/169/262 209/136/225 211/138/227
f 208/135/224 438/137/470 210/137/226
f 244/171/264 207/134/223 209/136/225
f 206/133/222 436/135/468 208/135/224
f 246/173/266 205/132/221 207/134/223
f 203/131/219 437/133/469 206/133/222
f 248/124/268 204/127/220 205/132/221
f 204/127/220 251/128/271 202/130/218
f 203/131/219 201/131/217 437/133/469
f 254/174/274 200/130/216 202/130/218
f 256/174/276 199/129/215 200/130/216
f 256/174/276 30/22/34 199/129/215
f 197/127/213 201/131/217 198/128/214
f 435/132/467 197/127/213 195/125/211
f 194/124/210 435/132/467 195/125/211
f 432/173/464 194/124/210 191/121/207
f 191/121/207 190/120/206 432/173/464
f 188/118/204 429/172/461 190/120/206
f 187/117/203 428/264/460 188/118/204
f 184/114/200 386/240/411 187/117/203
f 186/116/202 189/119/205 185/115/201
f 185/115/201 192/122/208 183/113/199
f 182/112/198 385/239/407 184/114/200
f 192/122/208 181/111/197 183/113/199
f 182/112/198 179/109/195 383/237/405
f 193/123/209 180/110/196 181/111/197
f 180/110/196 196/126/212 176/106/192
f 179/109/195 178/108/194 382/236/404
f 381/235/403 178/108/194 177/107/193
f 196/126/212 175/105/191 176/106/192
f 175/105/191 27/19/30 174/104/190
f 172/102/187 177/107/193 173/103/188
f 380/234/400 172/102/187 171/101/186
f 171/101/691 165/95/692 380/234/401
f 169/99/182 165/95/692 171/101/691
f 26/18/28 168/98/184 170/100/183
f 24/16/24 167/97/180 168/98/179
f 169/99/182 166/96/181 165/95/692
f 165/95/692 164/94/693 380/234/401
f 380/234/401 164/94/693 163/93/402
f 377/231/396 163/93/402 162/12/397
f 162/12/397 161/92/694 374/228/392
f 374/228/392 161/92/694 160/91/393
f 372/226/390 160/91/393 159/89/6
f 158/90/168 371/90/389 159/89/169
f 158/90/6 156/31/6 370/30/6
f 152/30/656 370/30/388 156/31/167
f 20/12/6 154/32/6 157/89/6
f 152/30/656 156/31/167 153/31/164
f 151/29/386 370/30/388 152/30/656
f 150/33/408 369/29/387 151/29/386
f 149/35/380 364/33/381 150/33/408
f 148/34/377 361/35/379 149/35/380
f 146/28/163 362/34/378 148/34/377
f 147/32/6 9/5/6 145/27/6
f 146/28/163 144/28/162 362/34/378
f 9/5/10 143/27/84 145/27/161
f 363/221/6 144/28/6 142/88/6
f 142/88/160 141/88/159 356/221/410
f 139/87/156 141/88/6 140/73/6
f 331/209/337 139/87/365 138/86/695
f 138/86/695 136/84/359 331/209/337
f 134/82/151 340/218/358 136/84/152
f 135/83/150 137/85/157 125/73/138
f 133/81/696 339/217/355 134/82/151
f 132/80/354 339/217/355 133/81/696
f 131/79/697 337/215/351 132/80/354
f 130/78/349 337/215/351 131/79/697
f 129/77/698 335/213/345 130/78/349
f 128/76/344 335/213/345 129/77/698
f 127/75/699 333/211/341 128/76/344
f 126/74/339 333/211/341 127/75/699
f 124/72/137 332/210/340 126/74/339
f 125/73/6 8/5/6 5/3/6
f 124/72/137 123/71/136 332/210/340
f 121/69/134 310/68/4 123/71/136
f 120/68/4 310/68/4 121/69/134
f 308/206/319 120/68/131 118/68/128
f 308/206/58 118/68/58 116/66/58
f 116/66/58 115/65/58 547/208/58
f 115/65/127 113/65/126 561/208/528
f 117/67/130 112/64/125 114/64/124
f 113/65/58 111/63/58 559/292/58
f 119/67/58 99/53/58 112/64/58
f 111/63/123 110/63/122 558/292/591
f 110/63/58 109/53/58 286/188/303
f 286/188/303 109/53/58 108/62/119
f 106/60/118 105/59/700 89/43/701
f 89/43/701 105/59/700 104/58/702
f 104/58/702 103/57/703 91/45/704
f 91/45/704 103/57/703 102/56/705
f 102/56/705 101/55/706 93/47/707
f 93/47/707 101/55/706 100/54/708
f 122/70/133 97/51/106 99/53/105
f 98/52/104 95/49/103 100/54/708
f 122/70/135 96/50/102 97/51/101
f 96/50/100 65/36/709 82/37/88
f 94/48/710 100/54/708 95/49/103
f 93/47/707 100/54/708 94/48/710
f 92/46/711 102/56/705 93/47/707
f 91/45/704 102/56/705 92/46/711
f 90/44/712 104/58/702 91/45/704
f 89/43/701 104/58/702 90/44/712
f 88/42/713 106/60/118 89/43/701
f 87/41/116 106/60/118 88/42/713
f 86/40/714 108/62/119 87/41/116
f 86/40/714 85/39/715 108/62/119
f 84/37/58 108/62/119 85/39/715
f 83/38/86 277/38/294 84/37/87
f 274/27/58 83/38/58 81/5/58
f 80/27/84 274/27/161 81/5/10
f 80/27/58 78/11/58 269/32/58
f 78/11/83 77/11/82 267/32/166
f 76/6/58 36/26/58 77/11/58
f 73/7/58 36/26/58 76/6/58
f 74/7/58 75/6/58 69/4/58
f 72/8/11 71/9/78 643/9/78
f 64/1/6 72/8/6 643/9/6
f 64/1/6 643/9/6 644/2/6
f 644/2/6 643/9/6 645/316/6
f 644/2/6 645/316/6 646/317/6
f 646/317/716 647/2/717 644/2/718
f 644/2/718 647/2/717 66/1/76
f 646/317/716 648/317/719 647/2/717
f 649/316/58 647/2/58 648/317/58
f 649/316/58 648/317/58 650/318/58
f 650/318/58 651/319/58 649/316/58
f 649/316/58 651/319/58 652/320/58
f 649/316/58 652/320/58 653/321/58
f 654/322/58 649/316/58 653/321/58
f 655/322/720 654/322/721 653/321/722
f 655/322/720 653/321/722 656/321/723
f 645/316/6 655/322/6 656/321/6
f 645/316/6 656/321/6 657/320/6
f 657/320/6 658/319/6 645/316/6
f 645/316/6 658/319/6 659/318/6
f 658/319/724 650/318/725 659/318/726
f 657/320/727 651/319/728 658/319/724
f 656/321/723 652/320/729 657/320/727
f 660/323/6 655/322/6 645/316/6
f 645/316/6 661/324/6 660/323/6
f 661/324/730 662/323/731 660/323/732
f 660/323/732 662/323/731 654/322/721
f 661/324/730 663/324/733 662/323/731
f 662/323/58 663/324/58 649/316/58
f 649/316/58 663/324/58 664/325/58
f 649/316/58 664/325/58 665/326/58
f 645/316/734 649/316/734 665/326/735
f 645/316/734 665/326/735 666/326/736
f 666/326/6 667/325/6 645/316/6
f 666/326/736 664/325/737 667/325/738
f 71/9/78 649/316/734 645/316/734
f 666/326/736 665/326/735 664/325/737
f 667/325/738 664/325/737 663/324/733
f 667/325/738 663/324/733 661/324/730
f 645/316/6 667/325/6 661/324/6
f 660/323/732 654/322/721 655/322/720
f 662/323/58 649/316/58 654/322/58
f 656/321/723 653/321/722 652/320/729
f 657/320/727 652/320/729 651/319/728
f 658/319/724 651/319/728 650/318/725
f 659/318/726 650/318/725 648/317/719
f 71/9/58 647/2/58 649/316/58
f 659/318/726 648/317/719 646/317/716
f 645/316/6 659/318/6 646/317/6
f 645/316/734 643/9/78 71/9/78
f 71/9/58 68/1/58 647/2/58
f 74/7/58 69/4/58 70/8/58
f 79/5/85 67/4/75 69/4/7
f 647/2/717 68/1/77 66/1/76
f 67/4/58 82/37/58 65/36/58
f 644/2/718 66/1/76 64/1/3
f 40/4/6 72/8/6 64/1/6
f 14/8/58 53/4/58 4/1/58
f 14/8/58 4/1/58 668/9/58
f 668/9/58 4/1/58 669/2/58
f 668/9/58 669/2/58 670/316/58
f 668/9/739 670/316/734 671/316/734
f 671/316/734 13/9/12 668/9/739
f 3/2/6 13/9/6 671/316/6
f 3/2/6 671/316/6 672/317/6
f 672/317/716 669/2/740 3/2/2
f 672/317/716 673/317/719 669/2/740
f 674/318/726 673/317/719 672/317/716
f 674/318/726 675/318/725 673/317/719
f 670/316/58 673/317/58 675/318/58
f 675/318/58 676/319/58 670/316/58
f 670/316/58 676/319/58 677/320/58
f 670/316/58 677/320/58 678/321/58
f 679/322/58 670/316/58 678/321/58
f 680/322/720 679/322/721 678/321/722
f 680/322/720 678/321/722 681/321/723
f 671/316/6 680/322/6 681/321/6
f 671/316/6 681/321/6 682/320/6
f 682/320/6 683/319/6 671/316/6
f 671/316/6 683/319/6 674/318/6
f 682/320/727 676/319/728 683/319/724
f 681/321/723 677/320/729 682/320/727
f 684/323/6 680/322/6 671/316/6
f 671/316/6 685/324/6 684/323/6
f 685/324/730 686/323/731 684/323/732
f 684/323/732 686/323/731 679/322/721
f 685/324/730 687/324/733 686/323/731
f 686/323/58 687/324/58 670/316/58
f 670/316/58 687/324/58 688/325/58
f 670/316/58 688/325/58 689/326/58
f 690/326/736 689/326/741 688/325/737
f 690/326/736 688/325/737 691/325/738
f 690/326/6 691/325/6 671/316/6
f 671/316/734 689/326/741 690/326/736
f 691/325/738 688/325/737 687/324/733
f 691/325/738 687/324/733 685/324/730
f 671/316/6 691/325/6 685/324/6
f 684/323/732 679/322/721 680/322/720
f 686/323/58 670/316/58 679/322/58
f 681/321/723 678/321/722 677/320/729
f 682/320/727 677/320/729 676/319/728
f 683/319/724 676/319/728 675/318/725
f 683/319/724 675/318/725 674/318/726
f 671/316/6 674/318/6 672/317/6
f 671/316/734 670/316/734 689/326/741
f 670/316/58 669/2/58 673/317/58
f 44/27/6 39/6/6 41/5/6
f 40/4/6 37/7/6 72/8/6
f 51/11/57 38/6/46 39/6/46
f 16/7/58 38/6/58 53/4/58
f 37/7/45 36/26/44 73/7/79
f 36/26/44 35/25/43 264/15/288
f 35/25/42 34/24/41 264/15/689
f 32/24/36 255/23/275 34/24/690
f 31/23/35 255/23/275 32/24/36
f 31/23/35 30/22/34 256/174/276
f 30/22/34 28/20/32 199/129/215
f 199/129/215 28/20/32 27/19/30
f 26/18/29 174/104/190 27/19/30
f 26/18/28 24/16/27 168/98/184
f 29/21/39 23/15/26 25/17/25
f 24/16/24 22/14/23 167/97/180
f 20/12/19 167/97/178 22/14/20
f 17/10/16 21/13/22 23/15/21
f 20/12/6 19/11/6 154/32/6
f 155/11/82 19/11/83 18/6/81
f 155/11/82 18/6/81 10/6/81
f 18/6/81 15/7/14 11/7/742
f 33/25/40 16/7/15 17/10/16
f 16/7/58 53/4/58 14/8/58
f 668/9/739 13/9/12 14/8/11
f 15/7/14 12/8/13 11/7/742
f 10/6/81 18/6/81 11/7/742
f 155/11/6 10/6/6 9/5/6
f 9/5/10 8/5/9 143/27/84
f 5/3/6 8/5/6 6/4/6
f 65/36/74 5/3/5 4/1/4
f 3/2/2 669/2/740 4/1/3
f 2/1/6 13/9/6 3/2/6
f 7/4/8 2/1/1 1/1/1
