OFF
691 1378 0
24.6815 -3.9165 -8
24.6815 -3.9165 -9
24.7095 -4.4695 -9
24.6815 -3.9165 -5
24.1995 -3.9165 -8
24.7035 -3.4235 -8
24.7035 -3.4235 -9
24.9895 -2.1005 -8
24.9895 -2.1005 -9
35.6585 -3.4235 -9
35.6805 -3.9165 -9
35.6805 -3.9225 -9
35.5335 -5.1765 -9
35.6805 -3.9225 -5
35.6805 -3.9165 -8
35.6805 -3.9165 -5
35.7145 -1.6475 -8
35.6585 -3.4235 -8
35.3715 -2.1005 -8
35.0285 -0.413498 -8
35.7125 -1.6415 -8.069
35.7055 -1.6255 -8.136
35.8005 4.6595 -8.131
35.7745 4.6405 -8.259
19.1595 9.6895 -8.258
19.1175 9.6375 -8.434
14.1995 18.8375 -8.431
14.2625 18.8715 -8.259
19.1675 9.6995 -8.223
14.2675 18.8735 -8.222
14.2925 18.8875 -8
19.1855 9.7205 -8
35.8095 4.6655 -8
19.1855 9.7205 8
35.8095 4.6655 8
35.7225 -1.1105 8
35.6805 -3.9165 5
35.6585 -3.4235 -5
35.6585 -3.4235 5
24.7035 -3.4235 5
24.9895 -2.1005 5
24.9895 -2.1005 -5
25.5905 -0.887499 -5
25.5905 -0.887499 5
26.4705 0.142501 -5
26.4705 0.142501 5
31.5245 1.4165 5
32.7875 0.926501 5
33.8915 0.142501 5
34.7705 -0.887499 5
35.3715 -2.1005 5
35.3715 -2.1005 -5
24.7035 -3.4235 -5
34.7705 -0.887499 -5
33.8915 0.142501 -5
32.7875 0.926501 -5
31.5245 1.4165 -5
30.1805 1.5825 5
27.5745 0.926501 5
28.8375 1.4165 5
28.8375 1.4165 -5
30.1805 1.5825 -5
27.5745 0.926501 -5
24.6815 -3.9165 5
23.9695 -3.9165 8
24.6815 -3.9165 8
24.7035 -3.4235 8
24.6815 -3.9165 9
24.7035 -3.4235 9
35.6805 -3.9225 9
35.5335 -5.1765 9
35.6805 -3.9225 5
35.6805 -3.9165 8
35.6805 -3.9165 9
35.6585 -3.4235 9
35.6585 -3.4235 8
35.3715 -2.1005 8
35.3715 -2.1005 9
24.9895 -2.1005 9
25.5905 -0.887499 9
24.9895 -2.1005 8
24.1535 -2.4135 8
24.6965 -0.999499 8
24.1535 -2.4135 9
24.0505 -2.9165 9
24.0305 -3.0475 8.991
24.0135 -3.1755 8.966
23.9995 -3.2995 8.924
23.9895 -3.4165 8.866
23.9815 -3.5255 8.794
23.9765 -3.6235 8.707
23.9725 -3.7095 8.609
23.9705 -3.7825 8.5
23.9695 -3.8405 8.383
23.9695 -3.8825 8.259
23.9695 -3.9085 8.13
-24.2905 -3.8825 8.259
-24.2905 -3.8405 8.383
-24.4545 -2.5205 8
-24.2915 -3.7825 8.5
-24.2935 -3.7105 8.609
-24.2975 -3.6235 8.707
-24.3025 -3.5255 8.793
-24.3105 -3.4165 8.866
-24.3215 -3.2995 8.924
-24.3355 -3.1755 8.966
-24.3535 -3.0475 8.991
-24.3735 -2.9165 9
-24.4545 -2.5205 9
-24.9835 -1.1125 9
-24.9835 -1.1125 8
-25.5465 -1.1665 8
-26.4205 -0.027499 8
-25.5465 -1.1665 9
-26.4205 -0.027499 9
-33.0595 0.846501 9
-24.9975 -2.4935 9
-24.8095 -3.9165 9
-24.9975 -2.4935 8
-24.8095 -3.9165 8
-24.2905 -3.9165 8
-24.2905 -3.9085 8.131
-24.0755 -3.9165 -8
24.1995 -3.9085 -8.131
24.3665 -2.5145 -8
24.1995 -3.8825 -8.259
24.2005 -3.8405 -8.383
24.2015 -3.7825 -8.5
24.2035 -3.7105 -8.609
24.2065 -3.6235 -8.707
24.2125 -3.5255 -8.793
24.2205 -3.4165 -8.866
24.2315 -3.2995 -8.924
24.2455 -3.1755 -8.966
24.2635 -3.0475 -8.991
-24.1195 -3.1755 -8.966
24.2835 -2.9165 -9
-24.1365 -3.0475 -8.991
-24.1565 -2.9165 -9
24.3665 -2.5145 -9
24.9035 -1.1025 -9
24.9035 -1.1025 -8
25.5905 -0.887499 -8
26.4705 0.142501 -8
25.5905 -0.887499 -9
26.4705 0.142501 -9
34.7705 -0.887499 -9
27.5745 0.926501 -9
28.8375 1.4165 -9
30.1805 1.5825 -9
31.5245 1.4165 -9
32.7875 0.926501 -9
33.8915 0.142501 -9
34.7705 -0.887499 -8
35.3715 -2.1005 -9
33.8915 0.142501 -8
33.9955 0.689501 -8
32.7205 1.4985 -8
33.9955 0.689501 -9
34.7385 -0.043499 -9
34.9915 -0.366498 -8.961
35.0285 -0.413498 -8.955
35.2285 -0.708498 -8.866
35.4305 -1.0515 -8.707
35.5855 -1.3545 -8.5
35.6385 -1.4705 -8.389
35.6815 -1.5685 -8.259
35.7325 4.6095 -8.383
35.6735 4.5665 -8.5
19.0895 9.6045 -8.497
35.6005 4.5135 -8.609
19.0355 9.5375 -8.623
14.0945 18.7815 -8.618
14.1745 18.8245 -8.5
14.0695 18.9785 -8.5
13.9485 18.8755 -8.707
14.0345 18.7495 -8.707
13.9565 18.7075 -8.775
13.7915 18.7405 -8.866
13.8375 18.9805 -8.707
13.7125 18.8145 -8.866
13.6075 18.5845 -8.966
13.5675 18.6225 -8.966
13.4105 18.4165 -9
13.5195 18.6515 -8.966
13.4665 18.6695 -8.966
13.4105 18.6755 -8.966
13.4105 18.9165 -8.866
13.5175 18.9045 -8.866
13.4105 19.1235 -8.707
13.5625 19.1075 -8.707
13.6205 18.8705 -8.866
13.7065 19.0585 -8.707
13.5965 19.2625 -8.5
13.7735 19.2025 -8.5
13.9335 19.1065 -8.5
13.8155 19.2935 -8.259
13.9945 19.1865 -8.259
14.1455 19.0435 -8.259
14.0145 19.2135 -8
13.8295 19.3245 -8
14.0145 19.2135 8
13.8295 19.3245 8
13.8155 19.2935 8.259
13.6175 19.3595 8.259
13.6255 19.3935 8
13.4105 19.3825 8.259
13.4105 19.4165 8
-16.7945 19.3825 8.259
-16.7945 19.4165 8
-17.2165 19.3365 8.259
-17.2245 19.3695 8
-17.6195 19.2005 8.259
-17.6345 19.2315 8
-17.9845 18.9815 8.259
-18.0045 19.0085 8
-18.2965 18.6915 8.222
-18.3185 18.7105 8
-25.9335 9.7005 8.223
-25.9495 9.7205 8
-35.8095 4.4585 8
-35.8015 4.4525 8.131
-25.9255 9.6905 8.258
-18.2925 18.6885 8.259
-18.2385 18.6425 8.431
-17.9235 18.9015 8.5
-18.2165 18.6235 8.5
-25.8865 9.6415 8.434
-25.8605 9.6105 8.497
-35.6755 4.3775 8.5
-35.7335 4.4125 8.383
-35.7315 -1.3005 8.389
-35.6755 -1.1885 8.5
-35.6035 4.3345 8.609
-35.5165 4.2825 8.707
-25.8095 9.5475 8.623
-18.1475 18.5655 8.618
-18.0955 18.5215 8.707
-17.8275 18.7755 8.707
-17.5775 19.1095 8.5
-17.5115 18.9655 8.707
-17.1955 19.2385 8.5
-17.1615 19.0835 8.707
-16.7945 19.2825 8.5
-16.7945 19.1235 8.707
13.4105 19.2825 8.5
13.4105 19.1235 8.707
13.5965 19.2625 8.5
13.5625 19.1075 8.707
13.7735 19.2025 8.5
13.9945 19.1865 8.259
13.9335 19.1065 8.5
14.1455 19.0435 8.259
14.1715 19.0655 8
14.2925 18.8875 8
14.1715 19.0655 -8
14.2625 18.8715 8.259
19.1795 9.7135 8.131
19.1615 9.6915 8.259
35.7745 4.6405 8.259
35.7325 4.6095 8.383
35.6895 -1.0465 8.259
35.7095 -1.0845 8.166
35.8005 4.6595 8.131
35.7205 -1.1065 8.068
34.9435 0.071501 8
34.7705 -0.887499 8
33.8915 0.142501 8
34.7705 -0.887499 9
33.8915 0.142501 9
32.7875 0.926501 9
31.5245 1.4165 9
26.4705 0.142501 9
25.5905 -0.887499 8
26.4705 0.142501 8
25.5655 0.241501 8
24.6965 -0.999499 9
25.5655 0.241501 9
18.4975 8.8845 9
13.4105 18.4165 9
-16.7945 18.4165 9
-17.0095 18.3925 9
-17.2145 18.3235 9
-17.3995 18.2125 9
-17.5565 18.0635 9
-25.3105 8.9275 9
-17.7255 18.2075 8.971
-25.4525 9.1045 8.975
-34.8095 3.8585 9
-35.0685 4.0135 8.966
-34.8095 0.081501 9
-34.0365 0.810502 9
-32.7475 1.5865 9
-32.7475 1.5865 8
-34.0365 0.810502 8
-34.1985 -0.027499 8
-35.0725 -1.1665 8
-34.1985 -0.027499 9
-35.0725 -1.1665 9
-34.1985 -7.8055 9
-33.0595 -8.6795 9
-31.7335 -9.2295 9
-30.3095 -9.4165 9
-28.8865 -9.2295 9
-27.5595 -8.6795 9
-26.4205 -7.8055 9
-25.5465 -6.6665 9
-24.9975 -5.3405 9
-24.9975 -5.3405 5
-24.8095 -3.9165 5
-33.0595 0.846501 5
-25.5465 -6.6665 5
-26.4205 -7.8055 5
-27.5595 -8.6795 5
-28.8865 -9.2295 5
-30.3095 -9.4165 5
-31.7335 -9.2295 5
-33.0595 -8.6795 5
-34.1985 -7.8055 5
-34.1985 -0.027499 5
-33.0595 0.846501 -5
-31.7335 1.3955 -5
-31.7335 1.3955 5
-27.5595 0.846501 5
-26.4205 -0.027499 5
-25.5465 -1.1665 5
-24.9975 -2.4935 5
-24.9975 -2.4935 -5
-24.8095 -3.9165 -5
-24.8095 -3.9165 -8
-24.2585 -2.4195 -8
-24.0755 -3.9085 -8.13
-24.0755 -3.8825 -8.259
-24.0765 -3.8405 -8.383
-24.0775 -3.7825 -8.5
-24.0795 -3.7095 -8.609
-24.0825 -3.6235 -8.707
-24.0885 -3.5255 -8.794
-24.0955 -3.4165 -8.866
-24.1065 -3.2995 -8.924
-24.9975 -2.4935 -8
-24.9975 -2.4935 -9
-25.5465 -1.1665 -9
-25.5465 -1.1665 -8
-24.7945 -1.0105 -8
-25.6535 0.228501 -8
-24.7945 -1.0105 -9
-24.2585 -2.4195 -9
-25.3105 8.9275 -9
-17.5565 18.0635 -9
-17.3995 18.2125 -9
-17.2145 18.3235 -9
-17.0095 18.3925 -9
-16.7945 18.4165 -9
18.4975 8.8845 -9
25.7765 0.130501 -9
26.9315 1.1045 -9
28.2925 1.7585 -9
26.9315 1.1045 -8
28.2925 1.7585 -8
28.8375 1.4165 -8
27.5745 0.926501 -8
25.7765 0.130501 -8
30.1805 1.5825 -8
29.7745 2.0505 -8
29.7745 2.0505 -9
31.2825 1.9615 -9
31.2825 1.9615 -8
31.5245 1.4165 -8
32.7875 0.926501 -8
32.7205 1.4985 -9
34.7985 3.9275 -9
18.6505 9.0695 -8.971
35.0595 4.1185 -8.966
18.6755 9.1005 -8.966
18.7945 9.2445 -8.895
35.3035 4.2965 -8.866
18.8415 9.3025 -8.866
18.9225 9.4015 -8.775
35.5125 4.4495 -8.707
18.9835 9.4755 -8.707
13.8515 18.6515 -8.866
13.7915 18.6195 -8.895
13.6395 18.5385 -8.966
13.6065 18.5205 -8.971
-16.7945 18.6755 -8.966
-17.0645 18.6455 -8.966
-17.1165 18.8815 -8.866
-17.4245 18.7775 -8.866
-17.3225 18.5585 -8.966
-17.7025 18.6105 -8.866
-17.5565 18.4185 -8.966
-17.8855 18.3425 -8.895
-17.7535 18.2305 -8.966
-25.4755 9.1325 -8.966
-25.4525 9.1035 -8.971
-35.0685 4.0135 -8.966
-34.8095 3.8585 -9
-34.8095 0.397501 -9
-35.0095 0.178501 -8.98
-35.0655 0.108501 -8.959
-35.0095 0.178501 -8
-35.3095 -0.193499 -8.866
-35.5165 -0.4895 -8.707
-35.3095 4.1585 -8.866
-25.5855 9.2695 -8.895
-25.6295 9.3245 -8.866
-17.9375 18.3875 -8.866
-25.7055 9.4175 -8.775
-18.0285 18.4635 -8.775
-17.8275 18.7755 -8.707
-18.0955 18.5215 -8.707
-25.7625 9.4885 -8.707
-25.8095 9.5475 -8.623
-35.5165 4.2825 -8.707
-35.6035 4.3345 -8.609
-35.6755 -0.743499 -8.5
-35.6755 4.3775 -8.5
-25.8605 9.6105 -8.497
-25.8865 9.6415 -8.434
-18.2385 18.6425 -8.431
-18.2165 18.6235 -8.5
-18.1475 18.5655 -8.618
-17.9235 18.9015 -8.5
-17.5115 18.9655 -8.707
-17.5775 19.1095 -8.5
-17.1615 19.0835 -8.707
-16.7945 18.9165 -8.866
-16.7945 19.1235 -8.707
-17.1955 19.2385 -8.5
-16.7945 19.2825 -8.5
13.4105 19.2825 -8.5
-16.7945 19.3825 -8.259
13.4105 19.3825 -8.259
13.6175 19.3595 -8.259
13.4105 19.4165 -8
13.6255 19.3935 -8
-16.7945 19.4165 -8
-17.2245 19.3695 -8
-17.2165 19.3365 -8.259
-17.6345 19.2315 -8
-17.6195 19.2005 -8.259
-18.0045 19.0085 -8
-17.9845 18.9815 -8.259
-18.2965 18.6915 -8.222
-18.2925 18.6885 -8.259
-25.9335 9.7005 -8.223
-25.9495 9.7205 -8
-18.3185 18.7105 -8
-35.8015 4.4525 -8.131
-35.7755 4.4375 -8.259
-35.7955 -0.956499 -8.166
-35.8075 -0.977499 -8.068
-35.8095 -0.982499 -8
-35.8095 4.4585 -8
-35.8095 -1.4705 8
-35.8095 -3.9165 -5
-35.8095 -3.9165 5
-35.8095 -3.9165 8
-35.6225 -2.4935 8
-35.0915 -0.260499 8
-35.8075 -1.4645 8.069
-35.8005 -1.4495 8.136
-35.7755 4.4375 8.259
-35.7755 -1.3955 8.259
-35.6225 -2.4935 9
-35.8095 -3.9165 9
-35.6225 -5.3405 9
-35.0725 -6.6665 9
-35.0725 -6.6665 5
-35.0725 -1.1665 5
-35.6225 -5.3405 5
-35.6225 -2.4935 5
-35.0725 -1.1665 -5
-34.1985 -0.027499 -5
-34.1985 -7.8055 -5
-33.0595 -8.6795 -5
-31.7335 -9.2295 -5
-30.3095 -9.4165 -5
-28.8865 -9.2295 -5
-27.5595 -8.6795 -5
-26.4205 -7.8055 -5
-25.5465 -6.6665 -5
-24.9975 -5.3405 -5
-24.9975 -5.3405 -9
-24.8095 -3.9165 -9
-33.0595 0.846501 -9
-25.5465 -6.6665 -9
-26.4205 -7.8055 -9
-27.5595 -8.6795 -9
-28.8865 -9.2295 -9
-30.3095 -9.4165 -9
-31.7335 -9.2295 -9
-33.0595 -8.6795 -9
-34.1985 -7.8055 -9
-34.1985 -0.027499 -9
-33.0595 0.846501 -8
-34.1985 -0.027499 -8
-33.8895 1.1875 -8
-31.7335 1.3955 -8
-32.5585 1.8975 -8
-30.3095 1.5835 -8
-31.7335 1.3955 -9
-27.5595 0.846501 -9
-26.4205 -0.027499 -9
-26.4205 -0.027499 -8
-27.5595 0.846501 -8
-26.7855 1.2255 -8
-25.6535 0.228501 -9
-26.7855 1.2255 -9
-28.1235 1.9215 -9
-29.5885 2.2755 -9
-31.0965 2.2675 -9
-32.5585 1.8975 -9
-33.8895 1.1875 -9
-31.0965 2.2675 -8
-29.5885 2.2755 -8
-28.8865 1.3955 -8
-30.3095 1.5835 -9
-28.8865 1.3955 -9
-28.1235 1.9215 -8
-35.0725 -1.1665 -8
-35.0725 -1.1665 -9
-35.6225 -2.4935 -9
-35.6225 -2.4935 -8
-35.8095 -3.9165 -9
-35.8095 -3.9165 -8
-35.6225 -5.3405 -9
-35.6225 -5.3405 -5
-35.6225 -2.4935 -5
-35.0725 -6.6665 -5
-35.0725 -6.6665 -9
-35.7755 -0.919498 -8.259
-35.7315 -0.839499 -8.388
-35.7335 4.4125 -8.383
-25.9255 9.6905 -8.258
-17.7255 18.2075 -8.971
-25.5465 -1.1665 -5
-26.4205 -0.027499 -5
-27.5595 0.846501 -5
-28.8865 1.3955 5
-28.8865 1.3955 -5
-30.3095 1.5835 -5
-30.3095 1.5835 5
-33.0595 0.846501 8
-31.7335 1.3955 9
-27.5595 0.846501 9
-28.8865 1.3955 9
-30.3095 1.5835 9
-31.7335 1.3955 8
-30.3095 1.5835 8
-29.8045 2.0815 8
-31.3075 2.0195 8
-31.3075 2.0195 9
-29.8045 2.0815 9
-28.3335 1.7695 9
-26.9855 1.1015 9
-25.8455 0.120501 9
-25.8455 0.120501 8
-26.9855 1.1015 8
-27.5595 0.846501 8
-28.8865 1.3955 8
-28.3335 1.7695 8
-35.0675 -0.231499 8.963
-35.0915 -0.260499 8.959
-35.3095 -0.564498 8.866
-35.5165 -0.896499 8.707
-35.3095 4.1585 8.866
-25.7085 9.4215 8.782
-25.7595 9.4845 8.703
-18.0285 18.4635 8.775
-17.9375 18.3875 8.866
-17.7025 18.6105 8.866
-17.8855 18.3425 8.895
-25.6275 9.3215 8.861
-25.5875 9.2715 8.901
-25.4745 9.1325 8.963
-17.7535 18.2305 8.966
-17.5565 18.4185 8.966
-17.3225 18.5585 8.966
-17.4245 18.7775 8.866
-17.1165 18.8815 8.866
-17.0645 18.6455 8.966
-16.7945 18.9165 8.866
-16.7945 18.6755 8.966
13.4105 18.9165 8.866
13.4105 18.6755 8.966
13.5175 18.9045 8.866
13.7065 19.0585 8.707
13.6205 18.8705 8.866
13.8375 18.9805 8.707
14.0695 18.9785 8.5
13.9485 18.8755 8.707
14.1745 18.8245 8.5
19.1325 9.6565 8.383
19.0935 9.6085 8.5
35.6735 4.5665 8.5
35.6005 4.5135 8.609
35.5925 -0.867499 8.5
35.4375 -0.607499 8.707
35.6465 -0.965499 8.388
35.2345 -0.305499 8.866
34.9955 0.003501 8.959
34.9435 0.071501 8.979
34.7435 0.298501 9
33.8365 1.1055 8
33.8365 1.1055 9
32.5125 1.8405 9
32.5125 1.8405 8
32.7875 0.926501 8
31.5245 1.4165 8
31.0495 2.2335 8
30.1805 1.5825 8
30.1805 1.5825 9
27.5745 0.926501 9
28.8375 1.4165 9
28.8375 1.4165 8
27.5745 0.926501 8
28.0595 1.9215 8
26.7095 1.2345 8
26.7095 1.2345 9
28.0595 1.9215 9
29.5355 2.2615 9
34.7985 3.9275 9
35.0595 4.1185 8.966
18.6755 9.1005 8.966
35.3035 4.2965 8.866
18.8415 9.3025 8.866
13.6395 18.5385 8.966
13.6075 18.5845 8.966
13.5675 18.6225 8.966
13.5195 18.6515 8.966
13.4665 18.6695 8.966
13.7125 18.8145 8.866
13.7915 18.7405 8.866
14.0345 18.7495 8.707
13.8515 18.6515 8.866
18.9835 9.4755 8.707
35.5125 4.4495 8.707
19.0435 9.5475 8.609
31.0495 2.2335 9
29.5355 2.2615 8
35.5335 -5.1765 5
24.7095 -4.4695 5
35.3805 -5.7085 5
25.0095 -5.7875 5
24.7095 -4.4695 9
25.0095 -5.7875 9
35.3805 -5.7085 9
25.6215 -6.9915 9
26.5085 -8.0105 9
27.6175 -8.7825 9
28.8805 -9.2605 9
30.2225 -9.4165 9
30.2225 -9.4165 5
28.8805 -9.2605 5
27.6175 -8.7825 5
26.5085 -8.0105 5
25.6215 -6.9915 5
31.5615 -9.2405 5
32.8175 -8.7425 5
31.5615 -9.2405 9
32.8175 -8.7425 9
33.9145 -7.9545 9
34.7865 -6.9225 9
34.7865 -6.9225 5
33.9145 -7.9545 5
35.5335 -5.1765 -5
24.7095 -4.4695 -5
35.3805 -5.7085 -5
35.3805 -5.7085 -9
25.0095 -5.7875 -9
25.0095 -5.7875 -5
25.6215 -6.9915 -9
25.6215 -6.9915 -5
26.5085 -8.0105 -5
27.6175 -8.7825 -5
28.8805 -9.2605 -5
30.2225 -9.4165 -5
30.2225 -9.4165 -9
28.8805 -9.2605 -9
27.6175 -8.7825 -9
26.5085 -8.0105 -9
31.5615 -9.2405 -9
32.8175 -8.7425 -9
31.5615 -9.2405 -5
32.8175 -8.7425 -5
33.9145 -7.9545 -5
34.7865 -6.9225 -5
34.7865 -6.9225 -9
33.9145 -7.9545 -9
3 2 1 0
3 0 3 2
3 0 4 3
3 0 5 4
3 6 5 0
3 7 5 6
3 8 7 6
3 6 9 8
3 6 10 9
3 11 10 6
3 1 11 6
3 12 11 1
3 11 12 13
3 11 13 14
3 14 13 15
3 14 15 16
3 16 17 14
3 18 17 16
3 19 18 16
3 19 16 20
3 20 21 19
3 21 20 22
3 23 21 22
3 23 22 24
3 25 23 24
3 24 26 25
3 27 26 24
3 28 27 24
3 28 29 27
3 30 29 28
3 31 30 28
3 28 32 31
3 22 32 28
3 16 32 22
3 32 33 31
3 34 33 32
3 15 34 32
3 35 34 15
3 36 35 15
3 36 15 37
3 36 37 38
3 39 36 38
3 39 38 40
3 40 41 39
3 42 41 40
3 43 42 40
3 44 42 43
3 45 44 43
3 43 46 45
3 47 46 43
3 48 47 43
3 43 49 48
3 50 49 43
3 38 50 43
3 50 51 49
3 37 51 50
3 51 37 52
3 41 51 52
3 51 53 49
3 53 51 42
3 54 53 42
3 42 55 54
3 56 55 42
3 55 56 46
3 46 56 57
3 46 57 58
3 58 57 59
3 59 60 58
3 61 60 59
3 61 62 60
3 56 62 61
3 62 56 44
3 60 62 58
3 58 62 45
3 57 61 59
3 56 61 57
3 54 55 47
3 53 54 48
3 49 53 48
3 48 54 47
3 47 55 46
3 45 46 58
3 62 44 45
3 44 56 42
3 42 51 41
3 41 52 39
3 39 52 3
3 3 63 39
3 3 64 63
3 64 65 63
3 65 64 66
3 67 65 66
3 67 66 68
3 67 68 69
3 70 67 69
3 71 70 69
3 71 69 72
3 36 71 72
3 72 69 73
3 72 73 74
3 74 75 72
3 76 75 74
3 77 76 74
3 77 74 68
3 78 77 68
3 79 77 78
3 78 80 79
3 66 80 78
3 66 81 80
3 81 82 80
3 81 83 82
3 84 83 81
3 85 84 81
3 81 86 85
3 87 86 81
3 88 87 81
3 81 89 88
3 90 89 81
3 91 90 81
3 81 92 91
3 93 92 81
3 94 93 81
3 94 81 95
3 94 95 96
3 97 94 96
3 97 96 98
3 99 97 98
3 98 100 99
3 101 100 98
3 102 101 98
3 98 103 102
3 104 103 98
3 105 104 98
3 105 98 106
3 105 106 86
3 86 106 107
3 98 107 106
3 98 108 107
3 109 108 98
3 110 109 98
3 110 98 111
3 112 110 111
3 112 111 113
3 114 112 113
3 115 114 113
3 113 116 115
3 116 117 115
3 116 118 117
3 111 118 116
3 118 119 117
3 118 120 119
3 98 120 118
3 121 120 98
3 121 64 120
3 95 64 121
3 64 122 120
3 4 122 64
3 123 122 4
3 123 4 124
3 124 125 123
3 126 125 124
3 127 126 124
3 124 128 127
3 129 128 124
3 130 129 124
3 124 131 130
3 132 131 124
3 133 132 124
3 133 124 134
3 134 135 133
3 136 135 134
3 137 135 136
3 138 137 136
3 136 139 138
3 124 139 136
3 140 139 124
3 141 140 124
3 124 142 141
3 7 142 124
3 142 143 141
3 143 142 144
3 145 143 144
3 145 144 146
3 146 147 145
3 148 147 146
3 149 148 146
3 146 150 149
3 151 150 146
3 152 151 146
3 146 153 152
3 18 153 146
3 154 18 146
3 146 8 154
3 153 155 152
3 155 153 156
3 157 155 156
3 156 158 157
3 159 158 156
3 19 159 156
3 160 159 19
3 161 160 19
3 162 161 19
3 19 163 162
3 164 163 19
3 165 164 19
3 19 166 165
3 165 166 167
3 168 165 167
3 168 167 169
3 170 168 169
3 169 171 170
3 169 172 171
3 173 172 169
3 25 173 169
3 172 173 174
3 172 174 175
3 175 176 172
3 177 176 175
3 178 177 175
3 178 175 179
3 178 179 180
3 181 178 180
3 181 180 182
3 183 181 182
3 183 182 184
3 183 184 185
3 185 186 183
3 187 186 185
3 185 188 187
3 189 187 188
3 188 190 189
3 191 190 188
3 184 191 188
3 191 192 190
3 180 192 191
3 192 193 190
3 192 194 193
3 179 194 192
3 179 195 194
3 195 196 194
3 195 197 196
3 174 197 195
3 174 198 197
3 174 26 198
3 197 198 199
3 200 197 199
3 200 199 201
3 202 200 201
3 202 201 203
3 202 203 204
3 205 202 204
3 205 204 206
3 207 205 206
3 207 206 208
3 209 207 208
3 209 208 210
3 211 209 210
3 211 210 212
3 213 211 212
3 213 212 214
3 215 213 214
3 215 214 216
3 217 215 216
3 217 216 218
3 219 217 218
3 218 220 219
3 221 220 218
3 222 221 218
3 218 223 222
3 223 224 222
3 223 214 224
3 214 225 224
3 224 225 226
3 224 226 227
3 227 226 228
3 227 228 229
3 230 227 229
3 229 231 230
3 232 231 229
3 233 232 229
3 234 232 233
3 233 235 234
3 228 235 233
3 228 236 235
3 236 237 235
3 236 238 237
3 225 238 236
3 225 239 238
3 212 239 225
3 239 240 238
3 239 241 240
3 210 241 239
3 241 242 240
3 241 243 242
3 208 243 241
3 243 244 242
3 243 245 244
3 206 245 243
3 245 246 244
3 245 247 246
3 204 247 245
3 247 248 246
3 247 249 248
3 203 249 247
3 203 250 249
3 250 251 249
3 250 252 251
3 253 252 250
3 201 253 250
3 253 254 252
3 253 255 254
3 199 255 253
3 255 30 254
3 254 256 252
3 256 254 257
3 258 256 257
3 258 257 259
3 260 258 259
3 259 261 260
3 262 261 259
3 263 262 259
3 264 262 263
3 35 264 263
3 265 264 35
3 265 35 266
3 267 265 266
3 267 266 268
3 269 267 268
3 269 268 79
3 79 270 269
3 271 270 79
3 272 271 79
3 79 273 272
3 273 274 272
3 273 275 274
3 82 275 273
3 82 276 275
3 276 277 275
3 276 278 277
3 83 278 276
3 107 278 83
3 107 279 278
3 280 279 107
3 281 280 107
3 107 282 281
3 283 282 107
3 284 283 107
3 284 107 285
3 285 286 284
3 287 286 285
3 287 285 288
3 289 287 288
3 288 290 289
3 288 291 290
3 292 291 288
3 291 292 293
3 294 291 293
3 294 293 295
3 296 294 295
3 296 295 297
3 298 296 297
3 299 298 297
3 115 299 297
3 300 299 115
3 301 300 115
3 115 302 301
3 303 302 115
3 304 303 115
3 115 305 304
3 306 305 115
3 307 306 115
3 307 308 306
3 307 309 308
3 119 309 307
3 308 309 310
3 311 308 310
3 311 310 312
3 311 312 305
3 312 310 313
3 312 313 304
3 310 314 313
3 315 314 310
3 316 315 310
3 310 317 316
3 318 317 310
3 319 318 310
3 310 320 319
3 321 320 310
3 322 321 310
3 310 323 322
3 324 323 310
3 325 324 310
3 326 325 310
3 326 327 325
3 328 327 326
3 309 328 326
3 309 122 328
3 122 329 328
3 122 330 329
3 330 122 331
3 332 330 331
3 332 331 125
3 332 333 330
3 127 333 332
3 334 333 127
3 333 334 330
3 330 334 335
3 335 336 330
3 336 335 129
3 336 337 330
3 131 337 336
3 338 337 131
3 330 337 338
3 338 339 330
3 133 339 338
3 339 135 330
3 129 335 334
3 329 330 340
3 340 341 329
3 342 341 340
3 343 342 340
3 340 344 343
3 344 345 343
3 344 346 345
3 347 346 344
3 330 347 344
3 138 347 330
3 138 348 347
3 349 348 138
3 350 349 138
3 138 351 350
3 352 351 138
3 353 352 138
3 138 354 353
3 138 140 354
3 140 355 354
3 354 355 356
3 356 357 354
3 357 356 358
3 359 357 358
3 358 360 359
3 361 360 358
3 362 361 358
3 143 361 362
3 360 361 147
3 360 363 359
3 363 360 148
3 359 363 364
3 364 365 359
3 366 365 364
3 367 366 364
3 364 368 367
3 368 369 367
3 369 368 150
3 367 369 157
3 157 370 367
3 370 366 367
3 366 370 371
3 354 366 371
3 372 354 371
3 373 372 371
3 371 159 373
3 373 374 372
3 375 374 373
3 376 375 373
3 373 161 376
3 376 377 375
3 378 377 376
3 379 378 376
3 376 162 379
3 379 380 378
3 171 380 379
3 171 176 380
3 380 177 378
3 177 381 378
3 378 381 377
3 381 382 377
3 382 381 178
3 377 382 375
3 382 383 375
3 383 382 181
3 181 384 383
3 375 383 384
3 384 374 375
3 372 374 384
3 354 372 384
3 384 183 354
3 371 370 158
3 354 365 366
3 363 368 364
3 368 363 149
3 365 357 359
3 358 356 362
3 357 365 354
3 356 355 362
3 362 355 141
3 353 354 183
3 385 353 183
3 353 385 386
3 386 385 387
3 386 387 388
3 389 386 388
3 389 388 390
3 391 389 390
3 391 390 392
3 393 391 392
3 393 392 394
3 395 393 394
3 395 394 396
3 396 397 395
3 396 398 397
3 399 398 396
3 399 396 400
3 401 399 400
3 400 402 401
3 402 403 401
3 402 404 403
3 396 404 402
3 396 405 404
3 405 406 404
3 405 392 406
3 392 407 406
3 406 407 408
3 407 409 408
3 407 390 409
3 390 410 409
3 409 410 411
3 409 411 412
3 412 411 413
3 412 413 414
3 408 412 414
3 404 408 414
3 414 413 415
3 414 415 403
3 403 415 416
3 415 417 416
3 415 418 417
3 418 419 417
3 418 420 419
3 421 420 418
3 413 421 418
3 413 422 421
3 422 423 421
3 410 423 422
3 410 424 423
3 388 424 410
3 424 425 423
3 424 426 425
3 387 426 424
3 387 427 426
3 427 428 426
3 428 427 187
3 426 428 429
3 428 430 429
3 430 428 189
3 431 430 189
3 432 430 431
3 433 432 431
3 433 431 193
3 193 434 433
3 435 433 434
3 434 436 435
3 196 436 434
3 196 200 436
3 435 436 205
3 435 437 433
3 207 437 435
3 437 432 433
3 432 437 438
3 439 432 438
3 439 438 440
3 441 439 440
3 441 440 442
3 443 441 442
3 443 442 444
3 445 443 444
3 444 446 445
3 447 446 444
3 448 447 444
3 448 219 447
3 446 447 449
3 450 446 449
3 449 451 450
3 452 451 449
3 453 452 449
3 449 454 453
3 453 454 455
3 455 456 453
3 457 456 455
3 458 457 455
3 455 459 458
3 296 459 455
3 455 460 296
3 460 455 461
3 461 462 460
3 462 461 221
3 463 462 221
3 464 462 463
3 230 464 463
3 230 463 222
3 462 464 460
3 460 464 231
3 221 461 455
3 458 459 465
3 466 458 465
3 467 466 465
3 467 465 468
3 468 469 467
3 318 469 468
3 299 318 468
3 470 469 318
3 471 469 470
3 472 471 470
3 470 473 472
3 474 473 470
3 319 474 470
3 475 473 474
3 320 475 474
3 476 475 320
3 477 476 320
3 320 478 477
3 479 478 320
3 480 479 320
3 320 481 480
3 482 481 320
3 483 482 320
3 320 328 483
3 483 484 482
3 329 484 483
3 329 485 484
3 484 485 486
3 487 484 486
3 487 486 488
3 487 488 481
3 488 486 489
3 488 489 480
3 486 490 489
3 491 490 486
3 492 491 486
3 486 493 492
3 494 493 486
3 495 494 486
3 495 486 496
3 497 495 496
3 496 401 497
3 498 401 496
3 499 498 496
3 500 498 499
3 501 500 499
3 499 502 501
3 486 502 499
3 486 503 502
3 504 503 486
3 342 504 486
3 503 504 505
3 506 503 505
3 505 507 506
3 345 507 505
3 345 508 507
3 508 509 507
3 509 508 348
3 348 510 509
3 511 510 348
3 512 511 348
3 512 348 397
3 397 513 512
3 514 513 397
3 513 514 498
3 498 514 398
3 512 513 500
3 515 512 500
3 511 512 515
3 516 511 515
3 516 515 501
3 517 516 501
3 501 518 517
3 518 519 517
3 502 519 518
3 517 519 506
3 506 520 517
3 520 516 517
3 520 510 516
3 510 511 516
3 509 510 520
3 508 346 348
3 507 509 520
3 507 520 506
3 519 503 506
3 505 504 343
3 503 519 502
3 502 518 501
3 515 500 501
3 500 513 498
3 498 398 401
3 401 453 497
3 497 453 521
3 521 522 497
3 523 522 521
3 524 523 521
3 525 523 524
3 526 525 524
3 453 526 524
3 527 525 526
3 456 527 526
3 528 527 456
3 528 456 529
3 528 529 530
3 530 531 528
3 494 531 530
3 475 494 530
3 522 531 494
3 527 531 522
3 530 529 475
3 531 527 528
3 525 527 523
3 523 527 522
3 521 453 524
3 522 495 497
3 496 486 499
3 522 494 495
3 493 494 475
3 492 493 476
3 491 492 477
3 490 491 478
3 489 490 479
3 486 485 341
3 484 487 482
3 482 487 481
3 481 488 480
3 480 489 479
3 479 490 478
3 478 491 477
3 477 492 476
3 476 493 475
3 529 473 475
3 473 529 472
3 472 529 457
3 457 471 472
3 469 471 467
3 467 471 458
3 468 465 299
3 467 458 466
3 465 459 298
3 471 457 458
3 529 456 457
3 456 526 453
3 455 454 220
3 447 220 454
3 401 452 453
3 451 452 401
3 401 532 451
3 533 532 401
3 416 533 401
3 534 533 416
3 532 533 534
3 450 532 534
3 534 535 450
3 419 535 534
3 451 532 450
3 535 446 450
3 449 447 454
3 446 535 445
3 445 535 420
3 420 443 445
3 423 443 420
3 444 442 448
3 448 442 215
3 425 441 443
3 425 429 441
3 442 440 213
3 429 439 441
3 440 438 211
3 438 437 209
3 430 432 439
3 429 430 439
3 426 429 425
3 423 425 443
3 421 423 420
3 535 419 420
3 417 419 534
3 416 417 534
3 413 418 415
3 411 422 413
3 411 410 422
3 408 409 412
3 406 408 404
3 404 414 403
3 401 403 416
3 400 396 402
3 398 399 401
3 398 514 397
3 395 397 348
3 394 405 396
3 395 536 393
3 349 536 395
3 394 392 405
3 536 391 393
3 350 391 536
3 392 390 407
3 351 389 391
3 390 388 410
3 352 386 389
3 388 387 424
3 385 427 387
3 427 385 186
3 352 353 386
3 351 352 389
3 350 351 391
3 349 350 536
3 348 349 395
3 348 346 347
3 346 508 345
3 343 345 505
3 504 342 343
3 341 342 486
3 341 485 329
3 330 344 340
3 328 329 483
3 327 328 320
3 537 327 320
3 320 538 537
3 539 538 320
3 538 539 323
3 323 539 540
3 539 541 540
3 541 539 321
3 542 541 321
3 541 542 543
3 543 542 322
3 322 540 543
3 540 541 543
3 537 538 324
3 327 537 325
3 325 537 324
3 324 538 323
3 323 540 322
3 542 321 322
3 321 539 320
3 320 474 319
3 470 318 319
3 317 318 299
3 316 317 300
3 315 316 301
3 314 315 302
3 313 314 303
3 310 309 326
3 308 311 306
3 306 311 305
3 305 312 304
3 304 313 303
3 303 314 302
3 302 315 301
3 301 316 300
3 300 317 299
3 465 298 299
3 459 296 298
3 297 295 115
3 295 544 115
3 115 544 545
3 545 546 115
3 547 546 545
3 548 547 545
3 545 549 548
3 549 550 548
3 549 551 550
3 552 551 549
3 544 552 549
3 293 552 544
3 552 553 551
3 292 553 552
3 553 292 285
3 554 553 285
3 285 555 554
3 285 556 555
3 557 556 285
3 109 557 285
3 556 557 558
3 559 556 558
3 559 558 560
3 561 559 560
3 561 560 546
3 546 560 114
3 562 559 561
3 550 562 561
3 550 561 547
3 562 555 559
3 560 558 112
3 558 557 110
3 555 556 559
3 554 555 562
3 551 554 562
3 553 554 551
3 551 562 550
3 548 550 547
3 547 561 546
3 544 549 545
3 460 294 296
3 460 290 294
3 563 290 460
3 564 563 460
3 565 564 460
3 460 566 565
3 232 566 460
3 565 566 234
3 567 565 234
3 234 568 567
3 234 569 568
3 569 570 568
3 237 570 569
3 570 571 568
3 570 572 571
3 238 572 570
3 571 572 573
3 571 573 574
3 574 573 575
3 567 574 575
3 567 575 289
3 289 564 567
3 575 576 289
3 575 577 576
3 577 286 576
3 577 578 286
3 573 578 577
3 578 283 286
3 578 579 283
3 580 579 578
3 572 580 578
3 240 580 572
3 580 581 579
3 242 581 580
3 581 582 579
3 581 583 582
3 244 583 581
3 583 584 582
3 583 585 584
3 246 585 583
3 585 586 584
3 585 587 586
3 248 587 585
3 248 588 587
3 588 589 587
3 588 590 589
3 251 590 588
3 251 591 590
3 591 592 590
3 591 593 592
3 256 593 591
3 593 256 594
3 595 593 594
3 595 594 596
3 597 595 596
3 597 596 598
3 599 597 598
3 265 599 598
3 598 600 265
3 260 600 598
3 600 261 265
3 601 599 265
3 602 601 265
3 265 603 602
3 604 603 265
3 605 604 265
3 605 606 604
3 607 606 605
3 608 607 605
3 608 605 609
3 610 608 609
3 610 609 270
3 611 608 610
3 612 611 610
3 612 610 271
3 613 612 271
3 271 614 613
3 613 614 615
3 615 616 613
3 617 616 615
3 617 618 616
3 619 618 617
3 274 619 617
3 274 617 614
3 619 620 618
3 277 620 619
3 620 621 618
3 278 621 620
3 622 621 278
3 623 622 278
3 623 278 624
3 624 604 623
3 278 625 624
3 624 625 626
3 624 626 601
3 625 627 626
3 625 628 627
3 279 628 625
3 629 628 279
3 630 629 279
3 631 630 279
3 632 631 279
3 586 632 279
3 589 631 632
3 589 633 631
3 633 630 631
3 633 634 630
3 592 634 633
3 592 635 634
3 635 636 634
3 636 635 637
3 627 636 637
3 627 637 638
3 638 637 639
3 638 639 597
3 637 635 639
3 635 593 639
3 634 636 629
3 634 629 630
3 636 628 629
3 628 636 627
3 626 627 638
3 626 638 599
3 640 622 623
3 607 640 623
3 622 640 611
3 641 622 611
3 621 622 641
3 618 621 641
3 618 641 616
3 616 641 612
3 614 617 615
3 616 612 613
3 641 611 612
3 611 640 608
3 609 605 267
3 640 607 608
3 607 623 606
3 606 623 604
3 603 604 624
3 602 603 624
3 602 624 601
3 601 626 599
3 599 638 597
3 598 596 260
3 639 595 597
3 596 594 260
3 639 593 595
3 593 635 592
3 590 592 633
3 590 633 589
3 587 589 632
3 587 632 586
3 584 586 280
3 582 584 281
3 579 582 282
3 573 577 575
3 572 578 573
3 568 571 574
3 568 574 567
3 564 565 567
3 289 563 564
3 295 293 544
3 293 292 552
3 290 291 294
3 290 563 289
3 289 576 287
3 285 292 288
3 576 286 287
3 286 283 284
3 579 282 283
3 582 281 282
3 584 280 281
3 586 279 280
3 278 279 625
3 277 278 620
3 275 277 619
3 275 619 274
3 272 274 614
3 614 271 272
3 271 610 270
3 270 609 269
3 609 267 269
3 268 266 77
3 605 265 267
3 266 35 76
3 262 264 265
3 265 261 262
3 261 600 260
3 594 258 260
3 259 257 263
3 257 33 263
3 594 256 258
3 257 254 33
3 252 256 591
3 252 591 251
3 249 251 588
3 249 588 248
3 246 248 585
3 244 246 583
3 242 244 581
3 240 242 580
3 238 240 572
3 237 238 570
3 235 237 569
3 235 569 234
3 234 566 232
3 231 232 460
3 231 464 230
3 222 227 230
3 229 228 233
3 226 236 228
3 226 225 236
3 222 224 227
3 463 221 222
3 455 220 221
3 219 220 447
3 217 219 448
3 218 216 223
3 217 448 215
3 216 214 223
3 215 442 213
3 214 212 225
3 213 440 211
3 212 210 239
3 211 438 209
3 210 208 241
3 209 437 207
3 208 206 243
3 207 435 205
3 206 204 245
3 205 436 202
3 204 203 247
3 201 250 203
3 436 200 202
3 201 199 253
3 199 198 255
3 198 29 255
3 197 200 196
3 194 196 434
3 194 434 193
3 190 193 431
3 431 189 190
3 189 428 187
3 187 427 186
3 186 385 183
3 184 188 185
3 182 191 184
3 183 384 181
3 182 180 191
3 382 178 181
3 180 179 192
3 175 195 179
3 381 177 178
3 176 177 380
3 175 174 195
3 173 26 174
3 172 176 171
3 170 171 379
3 379 164 170
3 170 164 168
3 169 167 25
3 167 166 23
3 164 165 168
3 379 163 164
3 162 163 379
3 161 162 376
3 373 160 161
3 159 160 373
3 158 159 371
3 158 370 157
3 369 155 157
3 155 369 151
3 156 153 19
3 152 155 151
3 151 369 150
3 150 368 149
3 149 363 148
3 148 360 147
3 147 361 145
3 144 8 146
3 361 143 145
3 144 142 8
3 141 143 362
3 355 140 141
3 139 140 138
3 137 138 330
3 330 135 137
3 135 339 133
3 124 136 134
3 133 338 132
3 132 338 131
3 131 336 130
3 130 336 129
3 129 334 128
3 128 334 127
3 127 332 126
3 126 332 125
3 125 331 123
3 4 7 124
3 331 122 123
3 122 309 120
3 120 309 119
3 117 119 307
3 115 117 307
3 546 114 115
3 560 112 114
3 113 111 116
3 558 110 112
3 111 98 118
3 557 109 110
3 285 108 109
3 107 108 285
3 88 104 105
3 103 104 88
3 90 102 103
3 101 102 90
3 92 100 101
3 99 100 92
3 98 96 121
3 99 94 97
3 96 95 121
3 81 64 95
3 94 99 93
3 93 99 92
3 92 101 91
3 91 101 90
3 90 103 89
3 89 103 88
3 88 105 87
3 87 105 86
3 86 107 85
3 107 84 85
3 84 107 83
3 83 276 82
3 80 82 273
3 80 273 79
3 268 77 79
3 266 76 77
3 76 35 75
3 75 35 72
3 68 74 73
3 642 70 71
3 642 71 63
3 643 642 63
3 644 642 643
3 645 644 643
3 643 646 645
3 65 646 643
3 646 647 645
3 647 646 648
3 649 647 648
3 648 650 649
3 651 650 648
3 652 651 648
3 652 648 653
3 652 653 654
3 655 652 654
3 655 654 644
3 656 655 644
3 644 657 656
3 658 657 644
3 658 649 657
3 657 650 656
3 656 651 655
3 644 654 659
3 659 660 644
3 659 661 660
3 653 661 659
3 661 662 660
3 648 662 661
3 663 662 648
3 664 663 648
3 664 648 644
3 665 664 644
3 644 666 665
3 666 663 665
3 644 648 70
3 663 664 665
3 662 663 666
3 660 662 666
3 660 666 644
3 654 653 659
3 653 648 661
3 651 652 655
3 650 651 656
3 649 650 657
3 647 649 658
3 648 646 70
3 645 647 658
3 645 658 644
3 70 642 644
3 646 67 70
3 69 68 73
3 68 66 78
3 65 67 646
3 64 81 66
3 63 65 643
3 63 71 39
3 3 52 13
3 667 3 13
3 668 3 667
3 669 668 667
3 670 669 667
3 667 12 670
3 670 12 2
3 671 670 2
3 2 668 671
3 668 672 671
3 671 672 673
3 672 674 673
3 674 672 669
3 669 675 674
3 676 675 669
3 677 676 669
3 677 669 678
3 677 678 679
3 680 677 679
3 680 679 670
3 681 680 670
3 670 682 681
3 673 682 670
3 682 675 681
3 681 676 680
3 670 679 683
3 683 684 670
3 683 685 684
3 678 685 683
3 685 686 684
3 669 686 685
3 687 686 669
3 688 687 669
3 687 688 689
3 690 687 689
3 670 690 689
3 689 688 670
3 686 687 690
3 684 686 690
3 684 690 670
3 679 678 683
3 678 669 685
3 676 677 680
3 675 676 681
3 674 675 682
3 673 674 682
3 671 673 670
3 688 669 670
3 672 668 669
3 40 38 43
3 71 36 39
3 38 37 50
3 52 37 15
3 72 35 36
3 263 34 35
3 263 33 34
3 33 254 31
3 31 254 30
3 255 29 30
3 198 27 29
3 26 27 198
3 26 173 25
3 167 23 25
3 24 22 28
3 166 21 23
3 21 166 19
3 22 20 16
3 153 18 19
3 17 18 154
3 9 17 154
3 10 14 17
3 16 15 32
3 13 52 15
3 13 12 667
3 10 11 14
3 10 17 9
3 8 9 154
3 142 7 8
3 5 7 4
3 3 4 64
3 3 668 2
3 2 12 1
3 0 1 6
